<?xml version="1.0" encoding="UTF-8" standalone="no"?>
<svg
   xmlns:dc="http://purl.org/dc/elements/1.1/"
   xmlns:cc="http://creativecommons.org/ns#"
   xmlns:rdf="http://www.w3.org/1999/02/22-rdf-syntax-ns#"
   xmlns:svg="http://www.w3.org/2000/svg"
   xmlns="http://www.w3.org/2000/svg"
   xmlns:sodipodi="http://sodipodi.sourceforge.net/DTD/sodipodi-0.dtd"
   xmlns:inkscape="http://www.inkscape.org/namespaces/inkscape"
   sodipodi:docname="degaine-inside.svg"
   inkscape:version="0.92.3 (2405546, 2018-03-11)"
   version="1.1"
   id="svg4223"
   viewBox="-1 -1 65.772638 46.505906"
   height="210mm"
   width="297mm">
  <metadata
     id="metadata4253">
    <rdf:RDF>
      <cc:Work
         rdf:about="">
        <dc:format>image/svg+xml</dc:format>
        <dc:type
           rdf:resource="http://purl.org/dc/dcmitype/StillImage" />
        <dc:title />
      </cc:Work>
    </rdf:RDF>
  </metadata>
  <defs
     id="defs4251" />
  <sodipodi:namedview
     inkscape:measure-end="319.039,344.375"
     inkscape:measure-start="320.383,350.62"
     showguides="false"
     inkscape:snap-nodes="true"
     units="mm"
     inkscape:current-layer="svg4223"
     inkscape:window-maximized="1"
     inkscape:window-y="27"
     inkscape:window-x="0"
     inkscape:cy="367.63339"
     inkscape:cx="384.39716"
     inkscape:zoom="0.80061069"
     inkscape:snap-center="true"
     inkscape:snap-object-midpoints="true"
     inkscape:snap-midpoints="true"
     inkscape:snap-smooth-nodes="true"
     inkscape:object-nodes="true"
     inkscape:snap-intersection-paths="true"
     inkscape:object-paths="true"
     inkscape:snap-bbox-midpoints="true"
     inkscape:snap-bbox-edge-midpoints="true"
     inkscape:bbox-nodes="true"
     inkscape:bbox-paths="true"
     inkscape:snap-bbox="true"
     showgrid="false"
     id="namedview4249"
     inkscape:window-height="996"
     inkscape:window-width="1920"
     inkscape:pageshadow="2"
     inkscape:pageopacity="0"
     guidetolerance="10"
     gridtolerance="10"
     objecttolerance="10"
     borderopacity="1"
     bordercolor="#666666"
     pagecolor="#ffffff"
     inkscape:document-units="mm" />
  <g
     style="font-weight:bold;font-size:2px;font-family:Arial, sans-serif;text-anchor:middle;fill:none;fill-rule:evenodd;stroke:#000000;stroke-opacity:1;fill-opacity:1;stroke-width:0.05859375;stroke-miterlimit:4;stroke-dasharray:none"
     id="g4233"
     transform="translate(0,26.505906)" />
  <g
     inkscape:groupmode="layer"
     id="layer1"
     inkscape:label="lettre"
     style="display:inline"
     transform="translate(0,26.505906)" />
  <g
     transform="matrix(0.06249995,0,0,0.06249995,-2.8560285,-43.547808)"
     id="g4377"
     style="fill:none" />
  <g
     transform="matrix(0.06249995,0,0,0.06249995,-1.9826033,-22.892987)"
     id="g4385"
     style="fill:none" />
  <g
     transform="matrix(0.06249994,0,0,0.06249994,-62.978014,5.6007299)"
     id="g5372" />
  <g
     transform="matrix(0.06249994,0,0,0.06249994,-47.419798,5.6007299)"
     id="g5376" />
  <g
     transform="matrix(0,0.06249994,-0.06249994,0,-77.174035,18.074155)"
     id="g5384" />
  <g
     style="fill:none"
     transform="matrix(0.06249995,0,0,0.06249995,-44.713713,-2.323546)"
     id="g4373-4-8" />
  <path
     id="rect4191-58-6-6"
     style="opacity:1;fill:none;fill-opacity:1;fill-rule:nonzero;stroke:#0000ff;stroke-width:0.02214567;stroke-linecap:butt;stroke-linejoin:miter;stroke-miterlimit:4;stroke-dasharray:none;stroke-opacity:1"
     d="M 15.080652,30.629986 H 11.716946 V 27.28843 H 15.080652 Z M 7.0593999,30.629971 H 3.6956939 V 27.28841 H 7.0593999 Z M 7.0594019,41.640345 H 3.6956959 V 38.298785 L 7.0594019,38.298805 Z M 15.08068,41.640375 H 11.716974 V 38.298815 L 15.08068,38.298805 Z M 0.11835631,34.121039 -0.76747047,34.121039 -0.98892715,33.899582 V 24.740367 24.075992 L -0.10310039,23.411632 17.772437,23.411664 17.772421,24.07597 17.772437,24.408155 17.772454,24.961783 H 19.765559 L 19.765564,33.899582 19.544094,34.121039 18.65827,34.121025 V 34.785395 L 19.544095,34.785409 19.765556,35.006865 19.765551,44.609006 18.879725,45.494823 9.3882939,45.494826 -0.10310039,45.49483 -0.98890616,44.609006 -0.98892732,35.006865 -0.76747047,34.785409 H 0.11835631 Z M 9.3882669,36.290836 10.941877,37.866596 10.941882,42.072639 9.3882669,43.626355 7.8344369,42.072648 7.8344389,37.866586 Z M 9.7308599,35.947663 9.7306819,34.934404 17.066879,34.934355 17.066786,35.947663 15.512821,37.523689 11.284557,37.523658 Z M 1.7095649,35.947663 1.7095209,34.934515 H 9.0454959 L 9.0454899,35.947663 7.4915949,37.523757 3.2633579,37.523745 Z M 1.3669179,43.626389 0.03463385,43.404965 0.03459685,36.512301 1.3669179,36.290836 2.9206299,37.866573 2.9206259,42.072616 Z M 9.0454989,43.96891 9.0455109,44.63684 1.7095369,44.636953 1.7095239,43.96891 3.2633609,42.415441 7.4915989,42.415473 Z M 17.066882,43.96891 17.066894,44.636939 9.7306979,44.636953 9.7306859,43.96891 11.28456,42.415464 15.512824,42.415476 Z M 17.409658,36.290856 18.74198,36.512328 18.741917,43.404899 17.409722,43.626288 15.855758,42.072606 15.855749,37.866576 Z M 9.3882669,25.280499 10.941979,26.856236 10.941976,31.062278 9.3882669,32.616019 7.8344349,31.06231 7.8344369,26.856248 Z M 9.7308579,24.937326 9.7306819,24.269713 17.066879,24.269665 17.066785,24.937326 15.512886,26.513309 11.284651,26.513297 Z M 1.7095649,24.937326 1.7095209,24.269824 H 9.0454959 L 9.0454899,24.937326 7.4915949,26.51342 3.2633579,26.513408 Z M 1.3669179,32.616019 0.03463385,32.39458 0.03459685,25.501916 1.3669179,25.280499 2.9206299,26.856236 2.9206259,31.062278 Z M 9.0454959,32.958576 9.0454999,33.991416 1.7095279,33.991528 1.7095709,32.958576 3.2633609,31.405104 7.4915969,31.405136 Z M 17.06679,32.958576 17.066885,33.991514 9.7306889,33.991528 9.7307379,32.958576 11.284655,31.405104 15.51289,31.405136 Z M 17.409658,25.280472 18.74198,25.501945 18.741918,32.394515 17.409658,32.616004 15.855824,31.062245 15.855826,26.856181 Z"
     inkscape:connector-curvature="0"
     sodipodi:nodetypes="cccccccccccccccccccccccccccccccccccccccccccccccccccccccccccccccccccccccccccccccccccccccccccccccccccccccccccccccccccccccccccccccccccccccccccccccc" />
  <g
     transform="matrix(0.06249995,0,0,0.06249995,-51.502465,-47.810299)"
     id="g1479" />
  <g
     transform="matrix(0.06249995,0,0,0.06249995,-51.502465,-26.107542)"
     id="g1495"
     style="stroke-width:0.354331;stroke-miterlimit:4;stroke-dasharray:none" />
  <path
     id="rect4191-58-6"
     style="opacity:1;fill:none;fill-opacity:1;fill-rule:nonzero;stroke:#0000ff;stroke-width:0.02214567;stroke-linecap:butt;stroke-linejoin:miter;stroke-miterlimit:4;stroke-dasharray:none;stroke-opacity:1"
     d="M 15.080652,8.0414032 H 11.716945 V 4.6998474 H 15.080652 Z M 7.059399,8.0413876 H 3.695693 V 4.6998271 H 7.059399 Z M 7.059401,19.051762 H 3.695695 V 15.710202 L 7.059401,15.710221 Z M 15.08068,19.051791 H 11.716973 V 15.710231 L 15.08068,15.710221 Z M 17.993898,12.196826 H 19.544095 L 19.765547,12.418283 19.765551,22.020423 18.879725,22.906239 -0.10310039,22.906242 -0.988919,22.020423 -0.988923,12.418279 -0.76747047,12.19683 0.78272639,12.196826 V 11.532456 H -0.76747047 L -0.988927,11.310999 V 1.7088583 L -0.10310039,0.82304888 17.772428,0.82308089 V 1.4873869 L 17.772443,1.8195719 17.77246,2.3732002 H 19.765569 L 19.765568,11.310999 19.544095,11.532456 H 17.993898 Z M 9.388267,13.702252 10.941876,15.278013 10.941881,19.484055 9.388267,21.037771 7.834436,19.484064 7.834438,15.278002 Z M 9.730859,13.359079 9.730681,12.345821 17.066878,12.345772 17.066785,13.359079 15.512821,14.935105 11.284556,14.935074 Z M 1.709565,13.359079 1.70952,12.345932 H 9.045495 L 9.045489,13.359079 7.491594,14.935174 3.263357,14.935162 Z M 1.366917,21.037805 0.034633,20.816382 0.034596,13.923717 1.366917,13.702252 2.920629,15.27799 2.920625,19.484032 Z M 9.045498,21.380327 9.04551,22.048256 1.709536,22.048369 1.709523,21.380327 3.26336,19.826857 7.491598,19.826889 Z M 17.066881,21.380327 17.066893,22.048355 9.730697,22.048369 9.730685,21.380327 11.284559,19.82688 15.512824,19.826893 Z M 17.409657,13.702273 18.741979,13.923745 18.741916,20.816315 17.409721,21.037704 15.855758,19.484022 15.855749,15.277992 Z M 9.388266,2.6919159 10.941978,4.2676526 10.941975,8.4736954 9.388266,10.027436 7.834434,8.4737273 7.834436,4.2676646 Z M 9.730857,2.3487429 9.730681,1.6811301 17.066878,1.6810821 17.066784,2.3487429 15.512886,3.9247256 11.28465,3.9247136 Z M 1.709565,2.3487429 1.70952,1.6812411 H 9.045495 L 9.045489,2.3487429 7.491594,3.9248366 3.263357,3.9248246 Z M 1.366917,10.027436 0.034633,9.8059967 0.034596,2.9133326 1.366917,2.6919159 2.920629,4.2676526 2.920625,8.4736954 Z M 9.045495,10.369993 9.045499,11.402833 1.709527,11.402945 1.70957,10.369993 3.26336,8.816521 7.491596,8.8165535 Z M 17.066789,10.369993 17.066884,11.402931 9.730688,11.402945 9.730737,10.369993 11.284654,8.816521 15.51289,8.8165535 Z M 17.409657,2.6918889 18.741979,2.9133616 18.741917,9.8059317 17.409657,10.027421 15.855824,8.4736623 15.855826,4.2675976 Z"
     inkscape:connector-curvature="0"
     sodipodi:nodetypes="cccccccccccccccccccccccccccccccccccccccccccccccccccccccccccccccccccccccccccccccccccccccccccccccccccccccccccccccccccccccccccccccccccccccccccccc" />
  <path
     style="display:inline;fill:none;fill-rule:evenodd;stroke:#fb0000;stroke-width:0.02214568;stroke-linecap:butt;stroke-linejoin:miter;stroke-miterlimit:4;stroke-dasharray:none;stroke-opacity:1"
     d="M -1,0.82301688 H -0.977854"
     id="path3824"
     inkscape:connector-curvature="0"
     sodipodi:nodetypes="cc" />
  <path
     id="rect4191-58-6-5"
     style="opacity:1;fill:none;fill-opacity:1;fill-rule:nonzero;stroke:#0000ff;stroke-width:0.02214567;stroke-linecap:butt;stroke-linejoin:miter;stroke-miterlimit:4;stroke-dasharray:none;stroke-opacity:1"
     d="M 36.340493,8.0413718 H 32.976786 V 4.6998157 H 36.340493 Z M 28.319241,8.041356 H 24.955535 V 4.6997953 H 28.319241 Z M 28.319243,19.05173 H 24.955536 V 15.71017 L 28.319243,15.71019 Z M 36.340521,19.05176 H 32.976814 V 15.7102 L 36.340521,15.71019 Z M 39.25374,12.196794 H 40.803938 L 41.025388,12.418252 41.025393,22.020391 40.139566,22.906208 21.156741,22.906211 20.270922,22.020391 20.270918,12.418247 20.492371,12.196798 22.042569,12.196794 V 11.532424 H 20.492371 L 20.270914,11.310967 V 1.7088265 L 21.156741,0.823017 39.032269,0.823049 V 1.487355 L 39.032285,1.8195401 39.032302,2.3731684 H 41.025412 L 41.02541,11.310967 40.803938,11.532424 H 39.25374 Z M 30.648108,13.70222 32.201717,15.277982 32.201722,19.484023 30.648108,21.03774 29.094277,19.484033 29.09428,15.277971 Z M 30.9907,13.359047 30.990524,12.345789 38.32672,12.34574 38.326627,13.359047 36.772663,14.935073 32.544398,14.935042 Z M 22.969407,13.359047 22.969362,12.345901 H 30.305337 L 30.30533,13.359047 28.751435,14.935143 24.523198,14.93513 Z M 22.626758,21.037774 21.294474,20.816351 21.294437,13.923686 22.626758,13.70222 24.180471,15.277958 24.180467,19.484 Z M 30.30534,21.380296 30.305351,22.048225 22.969377,22.048338 22.969364,21.380296 24.523201,19.826825 28.751439,19.826858 Z M 38.326723,21.380296 38.326734,22.048324 30.990539,22.048338 30.990527,21.380296 32.544401,19.826848 36.772666,19.826862 Z M 38.669499,13.702242 40.00182,13.923713 40.001758,20.816283 38.669564,21.037672 37.1156,19.48399 37.115591,15.277961 Z M 30.648108,2.6918841 32.201819,4.2676209 32.201816,8.4736636 30.648108,10.027405 29.094276,8.4736958 29.094277,4.2676329 Z M 30.990698,2.3487111 30.990524,1.6810983 38.32672,1.6810503 38.326625,2.3487111 36.772728,3.9246938 32.544491,3.9246818 Z M 22.969407,2.3487111 22.969362,1.6812092 H 30.305337 L 30.30533,2.3487111 28.751435,3.9248049 24.523198,3.9247929 Z M 22.626758,10.027405 21.294474,9.8059654 21.294437,2.9133008 22.626758,2.6918841 24.180471,4.2676209 24.180467,8.4736636 Z M 30.305337,10.369961 30.30534,11.402801 22.969369,11.402913 22.969411,10.369961 24.523201,8.8164892 28.751438,8.816522 Z M 38.32663,10.369961 38.326726,11.402899 30.990531,11.402913 30.990579,10.369961 32.544495,8.8164892 36.772731,8.816522 Z M 38.669499,2.6918571 40.00182,2.9133298 40.001758,9.8059003 38.669499,10.027389 37.115665,8.4736308 37.115668,4.2675658 Z"
     inkscape:connector-curvature="0"
     sodipodi:nodetypes="cccccccccccccccccccccccccccccccccccccccccccccccccccccccccccccccccccccccccccccccccccccccccccccccccccccccccccccccccccccccccccccccccccccccccccccc" />
  <path
     id="rect4191-58-6-3"
     style="opacity:1;fill:none;fill-opacity:1;fill-rule:nonzero;stroke:#0000ff;stroke-width:0.02214567;stroke-linecap:butt;stroke-linejoin:miter;stroke-miterlimit:4;stroke-dasharray:none;stroke-opacity:1"
     d="M 36.340496,30.629955 H 32.976788 V 27.288399 H 36.340496 Z M 28.319242,30.629939 H 24.955536 V 27.288379 H 28.319242 Z M 28.319244,41.640313 H 24.955538 V 38.298753 L 28.319244,38.298773 Z M 36.340524,41.640343 H 32.976816 V 38.298783 L 36.340524,38.298773 Z M 39.253741,34.785377 H 40.803939 L 41.02539,35.006835 41.025394,44.608974 40.139569,45.494791 21.156742,45.494794 20.270924,44.608974 20.27092,35.00683 20.492373,34.785381 22.042569,34.785377 V 34.121008 H 20.492373 L 20.270917,33.899551 V 24.29741 L 21.156742,23.4116 39.032271,23.411632 V 24.075938 L 39.032286,24.408123 39.032303,24.961752 H 41.025413 L 41.025411,33.899551 40.803939,34.121008 H 39.253741 Z M 30.64811,36.290803 32.20172,37.866565 32.201725,42.072606 30.64811,43.626323 29.094279,42.072616 29.094281,37.866554 Z M 30.990702,35.94763 30.990524,34.934372 38.326721,34.934323 38.326628,35.94763 36.772664,37.523656 32.5444,37.523625 Z M 22.969408,35.94763 22.969363,34.934484 H 30.305338 L 30.305332,35.94763 28.751437,37.523726 24.5232,37.523713 Z M 22.62676,43.626357 21.294476,43.404934 21.294439,36.512269 22.62676,36.290803 24.180472,37.866541 24.180468,42.072583 Z M 30.305341,43.968879 30.305353,44.636808 22.969379,44.636921 22.969366,43.968879 24.523203,42.415408 28.751441,42.415441 Z M 38.326724,43.968879 38.326737,44.636907 30.99054,44.636921 30.990528,43.968879 32.544403,42.415431 36.772669,42.415445 Z M 38.6695,36.290825 40.001822,36.512296 40.001759,43.404866 38.669565,43.626255 37.115603,42.072573 37.115592,37.866544 Z M 30.648109,25.280467 32.201821,26.856204 32.201819,31.062247 30.648109,32.615988 29.094277,31.062279 29.094279,26.856216 Z M 30.9907,24.937294 30.990524,24.269682 38.326721,24.269634 38.326627,24.937294 36.77273,26.513277 32.544494,26.513265 Z M 22.969408,24.937294 22.969363,24.269793 H 30.305338 L 30.305332,24.937294 28.751437,26.513388 24.5232,26.513376 Z M 22.62676,32.615988 21.294476,32.394549 21.294439,25.501884 22.62676,25.280467 24.180472,26.856204 24.180468,31.062247 Z M 30.305338,32.958545 30.305342,33.991385 22.96937,33.991497 22.969413,32.958545 24.523203,31.405072 28.751439,31.405105 Z M 38.326633,32.958545 38.326727,33.991483 30.990531,33.991497 30.99058,32.958545 32.544497,31.405072 36.772733,31.405105 Z M 38.6695,25.28044 40.001822,25.501913 40.00176,32.394484 38.6695,32.615973 37.115667,31.062214 37.11567,26.856149 Z"
     inkscape:connector-curvature="0"
     sodipodi:nodetypes="cccccccccccccccccccccccccccccccccccccccccccccccccccccccccccccccccccccccccccccccccccccccccccccccccccccccccccccccccccccccccccccccccccccccccccccc" />
</svg>
