(kicad_pcb (version 20171130) (host pcbnew 5.0.2-bee76a0~70~ubuntu18.04.1)

  (general
    (thickness 1.6)
    (drawings 9)
    (tracks 39)
    (zones 0)
    (modules 7)
    (nets 7)
  )

  (page A4)
  (title_block
    (title Dégaine)
    (date 2019-02-23)
    (rev v2.1)
    (company Crafting-Labs)
  )

  (layers
    (0 F.Cu signal)
    (31 B.Cu signal)
    (32 B.Adhes user)
    (33 F.Adhes user)
    (34 B.Paste user)
    (35 F.Paste user)
    (36 B.SilkS user)
    (37 F.SilkS user)
    (38 B.Mask user)
    (39 F.Mask user)
    (40 Dwgs.User user)
    (41 Cmts.User user)
    (42 Eco1.User user)
    (43 Eco2.User user)
    (44 Edge.Cuts user)
    (45 Margin user)
    (46 B.CrtYd user)
    (47 F.CrtYd user)
    (48 B.Fab user hide)
    (49 F.Fab user hide)
  )

  (setup
    (last_trace_width 0.25)
    (trace_clearance 0.2)
    (zone_clearance 0.508)
    (zone_45_only no)
    (trace_min 0.2)
    (segment_width 0.2)
    (edge_width 0.15)
    (via_size 0.8)
    (via_drill 0.4)
    (via_min_size 0.4)
    (via_min_drill 0.3)
    (uvia_size 0.3)
    (uvia_drill 0.1)
    (uvias_allowed no)
    (uvia_min_size 0.2)
    (uvia_min_drill 0.1)
    (pcb_text_width 0.3)
    (pcb_text_size 1.5 1.5)
    (mod_edge_width 0.15)
    (mod_text_size 1 1)
    (mod_text_width 0.15)
    (pad_size 1.524 1.524)
    (pad_drill 0.762)
    (pad_to_mask_clearance 0.051)
    (solder_mask_min_width 0.25)
    (aux_axis_origin 0 0)
    (grid_origin 96.433186 83.362176)
    (visible_elements FFFFFFFF)
    (pcbplotparams
      (layerselection 0x010fc_ffffffff)
      (usegerberextensions false)
      (usegerberattributes true)
      (usegerberadvancedattributes false)
      (creategerberjobfile false)
      (excludeedgelayer false)
      (linewidth 0.100000)
      (plotframeref false)
      (viasonmask false)
      (mode 1)
      (useauxorigin true)
      (hpglpennumber 1)
      (hpglpenspeed 20)
      (hpglpendiameter 15.000000)
      (psnegative false)
      (psa4output false)
      (plotreference true)
      (plotvalue true)
      (plotinvisibletext false)
      (padsonsilk false)
      (subtractmaskfromsilk false)
      (outputformat 1)
      (mirror false)
      (drillshape 0)
      (scaleselection 1)
      (outputdirectory "plots/"))
  )

  (net 0 "")
  (net 1 5V)
  (net 2 "Net-(P1-Pad2)")
  (net 3 GND)
  (net 4 "Net-(R1-Pad2)")
  (net 5 "Net-(R2-Pad2)")
  (net 6 "Net-(R3-Pad2)")

  (net_class Default "This is the default net class."
    (clearance 0.2)
    (trace_width 0.25)
    (via_dia 0.8)
    (via_drill 0.4)
    (uvia_dia 0.3)
    (uvia_drill 0.1)
    (add_net 5V)
    (add_net GND)
    (add_net "Net-(P1-Pad2)")
    (add_net "Net-(R1-Pad2)")
    (add_net "Net-(R2-Pad2)")
    (add_net "Net-(R3-Pad2)")
  )

  (module Rotary_Encoder:RotaryEncoder_Alps_EC11E-Switch_Vertical_H20mm_CircularMountingHoles (layer F.Cu) (tedit 5C718C81) (tstamp 5C123FC6)
    (at 156.683186 65.862176 270)
    (descr "Alps rotary encoder, EC12E... with switch, vertical shaft, mounting holes with circular drills, http://www.alps.com/prod/info/E/HTML/Encoder/Incremental/EC11/EC11E15204A3.html")
    (tags "rotary encoder")
    (path /5C040495)
    (fp_text reference SW2 (at 2.75 -4.25 270 unlocked) (layer F.SilkS)
      (effects (font (size 1 1) (thickness 0.15)))
    )
    (fp_text value Rotary_Encoder_Switch (at 7.5 10.4 270) (layer F.Fab)
      (effects (font (size 1 1) (thickness 0.15)))
    )
    (fp_text user %R (at 2.75 -4.25 270 unlocked) (layer F.Fab)
      (effects (font (size 1 1) (thickness 0.15)))
    )
    (fp_line (start 7 2.5) (end 8 2.5) (layer F.SilkS) (width 0.12))
    (fp_line (start 7.5 2) (end 7.5 3) (layer F.SilkS) (width 0.12))
    (fp_line (start 13.6 6) (end 13.6 8.4) (layer F.SilkS) (width 0.12))
    (fp_line (start 13.6 1.2) (end 13.6 3.8) (layer F.SilkS) (width 0.12))
    (fp_line (start 13.6 -3.4) (end 13.6 -1) (layer F.SilkS) (width 0.12))
    (fp_line (start 4.5 2.5) (end 10.5 2.5) (layer F.Fab) (width 0.12))
    (fp_line (start 7.5 -0.5) (end 7.5 5.5) (layer F.Fab) (width 0.12))
    (fp_line (start 0.3 -1.6) (end 0 -1.3) (layer F.SilkS) (width 0.12))
    (fp_line (start -0.3 -1.6) (end 0.3 -1.6) (layer F.SilkS) (width 0.12))
    (fp_line (start 0 -1.3) (end -0.3 -1.6) (layer F.SilkS) (width 0.12))
    (fp_line (start 1.4 -3.4) (end 1.4 8.4) (layer F.SilkS) (width 0.12))
    (fp_line (start 5.5 -3.4) (end 1.4 -3.4) (layer F.SilkS) (width 0.12))
    (fp_line (start 5.5 8.4) (end 1.4 8.4) (layer F.SilkS) (width 0.12))
    (fp_line (start 13.6 8.4) (end 9.5 8.4) (layer F.SilkS) (width 0.12))
    (fp_line (start 9.5 -3.4) (end 13.6 -3.4) (layer F.SilkS) (width 0.12))
    (fp_line (start 1.5 -2.2) (end 2.5 -3.3) (layer F.Fab) (width 0.12))
    (fp_line (start 1.5 8.3) (end 1.5 -2.2) (layer F.Fab) (width 0.12))
    (fp_line (start 13.5 8.3) (end 1.5 8.3) (layer F.Fab) (width 0.12))
    (fp_line (start 13.5 -3.3) (end 13.5 8.3) (layer F.Fab) (width 0.12))
    (fp_line (start 2.5 -3.3) (end 13.5 -3.3) (layer F.Fab) (width 0.12))
    (fp_line (start -1.5 -5.2) (end 16 -5.2) (layer F.CrtYd) (width 0.05))
    (fp_line (start -1.5 -5.2) (end -1.5 10.2) (layer F.CrtYd) (width 0.05))
    (fp_line (start 16 10.2) (end 16 -5.2) (layer F.CrtYd) (width 0.05))
    (fp_line (start 16 10.2) (end -1.5 10.2) (layer F.CrtYd) (width 0.05))
    (fp_circle (center 7.5 2.5) (end 10.5 2.5) (layer F.SilkS) (width 0.12))
    (fp_circle (center 7.5 2.5) (end 10.5 2.5) (layer F.Fab) (width 0.12))
    (pad S1 thru_hole circle (at 14.5 5 270) (size 2 2) (drill 1) (layers *.Cu *.Mask)
      (net 3 GND))
    (pad S2 thru_hole circle (at 14.5 0 270) (size 2 2) (drill 1) (layers *.Cu *.Mask)
      (net 4 "Net-(R1-Pad2)"))
    (pad MP thru_hole circle (at 7.5 8.1 270) (size 3.2 3.2) (drill 2.6) (layers *.Cu *.Mask))
    (pad MP thru_hole circle (at 7.5 -3.1 270) (size 3.2 3.2) (drill 2.6) (layers *.Cu *.Mask))
    (pad B thru_hole circle (at 0 5 270) (size 2 2) (drill 1) (layers *.Cu *.Mask)
      (net 5 "Net-(R2-Pad2)"))
    (pad C thru_hole circle (at 0 2.5 270) (size 2 2) (drill 1) (layers *.Cu *.Mask)
      (net 3 GND))
    (pad A thru_hole rect (at 0 0 270) (size 2 2) (drill 1) (layers *.Cu *.Mask)
      (net 6 "Net-(R3-Pad2)"))
    (model ${KISYS3DMOD}/Rotary_Encoder.3dshapes/RotaryEncoder_Alps_EC11E-Switch_Vertical_H20mm_CircularMountingHoles.wrl
      (at (xyz 0 0 0))
      (scale (xyz 1 1 1))
      (rotate (xyz 0 0 0))
    )
  )

  (module Connector_PinSocket_2.54mm:PinSocket_1x03_P2.54mm_Vertical (layer B.Cu) (tedit 5A19A429) (tstamp 5C107884)
    (at 127.683186 70.862176 180)
    (descr "Through hole straight socket strip, 1x03, 2.54mm pitch, single row (from Kicad 4.0.7), script generated")
    (tags "Through hole socket strip THT 1x03 2.54mm single row")
    (path /5AD9D3FF)
    (fp_text reference P1 (at 0 2.5 180) (layer B.SilkS)
      (effects (font (size 1 1) (thickness 0.15)) (justify mirror))
    )
    (fp_text value CONN_01X03 (at 0 -7.85 180) (layer B.Fab)
      (effects (font (size 1 1) (thickness 0.15)) (justify mirror))
    )
    (fp_line (start -1.27 1.27) (end 0.635 1.27) (layer B.Fab) (width 0.1))
    (fp_line (start 0.635 1.27) (end 1.27 0.635) (layer B.Fab) (width 0.1))
    (fp_line (start 1.27 0.635) (end 1.27 -6.35) (layer B.Fab) (width 0.1))
    (fp_line (start 1.27 -6.35) (end -1.27 -6.35) (layer B.Fab) (width 0.1))
    (fp_line (start -1.27 -6.35) (end -1.27 1.27) (layer B.Fab) (width 0.1))
    (fp_line (start -1.33 -1.27) (end 1.33 -1.27) (layer B.SilkS) (width 0.12))
    (fp_line (start -1.33 -1.27) (end -1.33 -6.41) (layer B.SilkS) (width 0.12))
    (fp_line (start -1.33 -6.41) (end 1.33 -6.41) (layer B.SilkS) (width 0.12))
    (fp_line (start 1.33 -1.27) (end 1.33 -6.41) (layer B.SilkS) (width 0.12))
    (fp_line (start 1.33 1.33) (end 1.33 0) (layer B.SilkS) (width 0.12))
    (fp_line (start 0 1.33) (end 1.33 1.33) (layer B.SilkS) (width 0.12))
    (fp_line (start -1.8 1.8) (end 1.75 1.8) (layer B.CrtYd) (width 0.05))
    (fp_line (start 1.75 1.8) (end 1.75 -6.85) (layer B.CrtYd) (width 0.05))
    (fp_line (start 1.75 -6.85) (end -1.8 -6.85) (layer B.CrtYd) (width 0.05))
    (fp_line (start -1.8 -6.85) (end -1.8 1.8) (layer B.CrtYd) (width 0.05))
    (fp_text user %R (at 0 -2.54 90) (layer B.Fab)
      (effects (font (size 1 1) (thickness 0.15)) (justify mirror))
    )
    (pad 1 thru_hole rect (at 0 0 180) (size 1.7 1.7) (drill 1) (layers *.Cu *.Mask)
      (net 1 5V))
    (pad 2 thru_hole oval (at 0 -2.54 180) (size 1.7 1.7) (drill 1) (layers *.Cu *.Mask)
      (net 2 "Net-(P1-Pad2)"))
    (pad 3 thru_hole oval (at 0 -5.08 180) (size 1.7 1.7) (drill 1) (layers *.Cu *.Mask)
      (net 3 GND))
    (model ${KISYS3DMOD}/Connector_PinSocket_2.54mm.3dshapes/PinSocket_1x03_P2.54mm_Vertical.wrl
      (at (xyz 0 0 0))
      (scale (xyz 1 1 1))
      (rotate (xyz 0 0 0))
    )
  )

  (module Connector_PinSocket_2.54mm:PinSocket_1x05_P2.54mm_Vertical (layer F.Cu) (tedit 5A19A420) (tstamp 5C10789D)
    (at 98.933186 67.492176)
    (descr "Through hole straight socket strip, 1x05, 2.54mm pitch, single row (from Kicad 4.0.7), script generated")
    (tags "Through hole socket strip THT 1x05 2.54mm single row")
    (path /5AD9D312)
    (fp_text reference P2 (at 0 -2.63) (layer F.SilkS)
      (effects (font (size 1 1) (thickness 0.15)))
    )
    (fp_text value USB_OTG (at 0 12.93) (layer F.Fab)
      (effects (font (size 1 1) (thickness 0.15)))
    )
    (fp_line (start -1.27 -1.27) (end 0.635 -1.27) (layer F.Fab) (width 0.1))
    (fp_line (start 0.635 -1.27) (end 1.27 -0.635) (layer F.Fab) (width 0.1))
    (fp_line (start 1.27 -0.635) (end 1.27 11.43) (layer F.Fab) (width 0.1))
    (fp_line (start 1.27 11.43) (end -1.27 11.43) (layer F.Fab) (width 0.1))
    (fp_line (start -1.27 11.43) (end -1.27 -1.27) (layer F.Fab) (width 0.1))
    (fp_line (start -1.33 1.27) (end 1.33 1.27) (layer F.SilkS) (width 0.12))
    (fp_line (start -1.33 1.27) (end -1.33 11.49) (layer F.SilkS) (width 0.12))
    (fp_line (start -1.33 11.49) (end 1.33 11.49) (layer F.SilkS) (width 0.12))
    (fp_line (start 1.33 1.27) (end 1.33 11.49) (layer F.SilkS) (width 0.12))
    (fp_line (start 1.33 -1.33) (end 1.33 0) (layer F.SilkS) (width 0.12))
    (fp_line (start 0 -1.33) (end 1.33 -1.33) (layer F.SilkS) (width 0.12))
    (fp_line (start -1.8 -1.8) (end 1.75 -1.8) (layer F.CrtYd) (width 0.05))
    (fp_line (start 1.75 -1.8) (end 1.75 11.9) (layer F.CrtYd) (width 0.05))
    (fp_line (start 1.75 11.9) (end -1.8 11.9) (layer F.CrtYd) (width 0.05))
    (fp_line (start -1.8 11.9) (end -1.8 -1.8) (layer F.CrtYd) (width 0.05))
    (fp_text user %R (at 0 5.08 90) (layer F.Fab)
      (effects (font (size 1 1) (thickness 0.15)))
    )
    (pad 1 thru_hole rect (at 0 0) (size 1.7 1.7) (drill 1) (layers *.Cu *.Mask)
      (net 1 5V))
    (pad 2 thru_hole oval (at 0 2.54) (size 1.7 1.7) (drill 1) (layers *.Cu *.Mask))
    (pad 3 thru_hole oval (at 0 5.08) (size 1.7 1.7) (drill 1) (layers *.Cu *.Mask))
    (pad 4 thru_hole oval (at 0 7.62) (size 1.7 1.7) (drill 1) (layers *.Cu *.Mask))
    (pad 5 thru_hole oval (at 0 10.16) (size 1.7 1.7) (drill 1) (layers *.Cu *.Mask)
      (net 3 GND))
    (model ${KISYS3DMOD}/Connector_PinSocket_2.54mm.3dshapes/PinSocket_1x05_P2.54mm_Vertical.wrl
      (at (xyz 0 0 0))
      (scale (xyz 1 1 1))
      (rotate (xyz 0 0 0))
    )
  )

  (module Module:Arduino_Nano (layer B.Cu) (tedit 5C718CE7) (tstamp 5C10792D)
    (at 143.933186 80.862176 90)
    (descr "Arduino Nano, http://www.mouser.com/pdfdocs/Gravitech_Arduino_Nano3_0.pdf")
    (tags "Arduino Nano")
    (path /5AD9D2A5)
    (fp_text reference U1 (at 0 2.75 270 unlocked) (layer B.SilkS)
      (effects (font (size 1 1) (thickness 0.15)) (justify mirror))
    )
    (fp_text value Arduino_nano (at 8.89 -19.05) (layer B.Fab)
      (effects (font (size 1 1) (thickness 0.15)) (justify mirror))
    )
    (fp_text user %R (at 6.35 -19.05) (layer B.Fab)
      (effects (font (size 1 1) (thickness 0.15)) (justify mirror))
    )
    (fp_line (start 1.27 -1.27) (end 1.27 1.27) (layer B.SilkS) (width 0.12))
    (fp_line (start 1.27 1.27) (end -1.4 1.27) (layer B.SilkS) (width 0.12))
    (fp_line (start -1.4 -1.27) (end -1.4 -39.5) (layer B.SilkS) (width 0.12))
    (fp_line (start -1.4 3.94) (end -1.4 1.27) (layer B.SilkS) (width 0.12))
    (fp_line (start 13.97 1.27) (end 16.64 1.27) (layer B.SilkS) (width 0.12))
    (fp_line (start 13.97 1.27) (end 13.97 -36.83) (layer B.SilkS) (width 0.12))
    (fp_line (start 13.97 -36.83) (end 16.64 -36.83) (layer B.SilkS) (width 0.12))
    (fp_line (start 1.27 -1.27) (end -1.4 -1.27) (layer B.SilkS) (width 0.12))
    (fp_line (start 1.27 -1.27) (end 1.27 -36.83) (layer B.SilkS) (width 0.12))
    (fp_line (start 1.27 -36.83) (end -1.4 -36.83) (layer B.SilkS) (width 0.12))
    (fp_line (start 3.81 -31.75) (end 11.43 -31.75) (layer B.Fab) (width 0.1))
    (fp_line (start 11.43 -31.75) (end 11.43 -41.91) (layer B.Fab) (width 0.1))
    (fp_line (start 11.43 -41.91) (end 3.81 -41.91) (layer B.Fab) (width 0.1))
    (fp_line (start 3.81 -41.91) (end 3.81 -31.75) (layer B.Fab) (width 0.1))
    (fp_line (start -1.4 -39.5) (end 16.64 -39.5) (layer B.SilkS) (width 0.12))
    (fp_line (start 16.64 -39.5) (end 16.64 3.94) (layer B.SilkS) (width 0.12))
    (fp_line (start 16.64 3.94) (end -1.4 3.94) (layer B.SilkS) (width 0.12))
    (fp_line (start 16.51 -39.37) (end -1.27 -39.37) (layer B.Fab) (width 0.1))
    (fp_line (start -1.27 -39.37) (end -1.27 2.54) (layer B.Fab) (width 0.1))
    (fp_line (start -1.27 2.54) (end 0 3.81) (layer B.Fab) (width 0.1))
    (fp_line (start 0 3.81) (end 16.51 3.81) (layer B.Fab) (width 0.1))
    (fp_line (start 16.51 3.81) (end 16.51 -39.37) (layer B.Fab) (width 0.1))
    (fp_line (start -1.53 4.06) (end 16.75 4.06) (layer B.CrtYd) (width 0.05))
    (fp_line (start -1.53 4.06) (end -1.53 -42.16) (layer B.CrtYd) (width 0.05))
    (fp_line (start 16.75 -42.16) (end 16.75 4.06) (layer B.CrtYd) (width 0.05))
    (fp_line (start 16.75 -42.16) (end -1.53 -42.16) (layer B.CrtYd) (width 0.05))
    (pad 1 thru_hole rect (at 0 0 90) (size 1.6 1.6) (drill 0.8) (layers *.Cu *.Mask))
    (pad 17 thru_hole oval (at 15.24 -33.02 90) (size 1.6 1.6) (drill 0.8) (layers *.Cu *.Mask))
    (pad 2 thru_hole oval (at 0 -2.54 90) (size 1.6 1.6) (drill 0.8) (layers *.Cu *.Mask))
    (pad 18 thru_hole oval (at 15.24 -30.48 90) (size 1.6 1.6) (drill 0.8) (layers *.Cu *.Mask))
    (pad 3 thru_hole oval (at 0 -5.08 90) (size 1.6 1.6) (drill 0.8) (layers *.Cu *.Mask))
    (pad 19 thru_hole oval (at 15.24 -27.94 90) (size 1.6 1.6) (drill 0.8) (layers *.Cu *.Mask))
    (pad 4 thru_hole oval (at 0 -7.62 90) (size 1.6 1.6) (drill 0.8) (layers *.Cu *.Mask))
    (pad 20 thru_hole oval (at 15.24 -25.4 90) (size 1.6 1.6) (drill 0.8) (layers *.Cu *.Mask))
    (pad 5 thru_hole oval (at 0 -10.16 90) (size 1.6 1.6) (drill 0.8) (layers *.Cu *.Mask)
      (net 2 "Net-(P1-Pad2)"))
    (pad 21 thru_hole oval (at 15.24 -22.86 90) (size 1.6 1.6) (drill 0.8) (layers *.Cu *.Mask))
    (pad 6 thru_hole oval (at 0 -12.7 90) (size 1.6 1.6) (drill 0.8) (layers *.Cu *.Mask)
      (net 4 "Net-(R1-Pad2)"))
    (pad 22 thru_hole oval (at 15.24 -20.32 90) (size 1.6 1.6) (drill 0.8) (layers *.Cu *.Mask))
    (pad 7 thru_hole oval (at 0 -15.24 90) (size 1.6 1.6) (drill 0.8) (layers *.Cu *.Mask)
      (net 5 "Net-(R2-Pad2)"))
    (pad 23 thru_hole oval (at 15.24 -17.78 90) (size 1.6 1.6) (drill 0.8) (layers *.Cu *.Mask))
    (pad 8 thru_hole oval (at 0 -17.78 90) (size 1.6 1.6) (drill 0.8) (layers *.Cu *.Mask)
      (net 6 "Net-(R3-Pad2)"))
    (pad 24 thru_hole oval (at 15.24 -15.24 90) (size 1.6 1.6) (drill 0.8) (layers *.Cu *.Mask))
    (pad 9 thru_hole oval (at 0 -20.32 90) (size 1.6 1.6) (drill 0.8) (layers *.Cu *.Mask))
    (pad 25 thru_hole oval (at 15.24 -12.7 90) (size 1.6 1.6) (drill 0.8) (layers *.Cu *.Mask))
    (pad 10 thru_hole oval (at 0 -22.86 90) (size 1.6 1.6) (drill 0.8) (layers *.Cu *.Mask))
    (pad 26 thru_hole oval (at 15.24 -10.16 90) (size 1.6 1.6) (drill 0.8) (layers *.Cu *.Mask))
    (pad 11 thru_hole oval (at 0 -25.4 90) (size 1.6 1.6) (drill 0.8) (layers *.Cu *.Mask))
    (pad 27 thru_hole oval (at 15.24 -7.62 90) (size 1.6 1.6) (drill 0.8) (layers *.Cu *.Mask)
      (net 1 5V))
    (pad 12 thru_hole oval (at 0 -27.94 90) (size 1.6 1.6) (drill 0.8) (layers *.Cu *.Mask))
    (pad 28 thru_hole oval (at 15.24 -5.08 90) (size 1.6 1.6) (drill 0.8) (layers *.Cu *.Mask))
    (pad 13 thru_hole oval (at 0 -30.48 90) (size 1.6 1.6) (drill 0.8) (layers *.Cu *.Mask))
    (pad 29 thru_hole oval (at 15.24 -2.54 90) (size 1.6 1.6) (drill 0.8) (layers *.Cu *.Mask)
      (net 3 GND))
    (pad 14 thru_hole oval (at 0 -33.02 90) (size 1.6 1.6) (drill 0.8) (layers *.Cu *.Mask))
    (pad 30 thru_hole oval (at 15.24 0 90) (size 1.6 1.6) (drill 0.8) (layers *.Cu *.Mask))
    (pad 15 thru_hole oval (at 0 -35.56 90) (size 1.6 1.6) (drill 0.8) (layers *.Cu *.Mask))
    (pad 16 thru_hole oval (at 15.24 -35.56 90) (size 1.6 1.6) (drill 0.8) (layers *.Cu *.Mask))
    (model ${KISYS3DMOD}/Module.3dshapes/Arduino_Nano_WithMountingHoles.wrl
      (at (xyz 0 0 0))
      (scale (xyz 1 1 1))
      (rotate (xyz 0 0 0))
    )
  )

  (module Resistor_SMD:R_1206_3216Metric_Pad1.42x1.75mm_HandSolder (layer F.Cu) (tedit 5C718CC0) (tstamp 5C123EF5)
    (at 139.683186 73.612176 270)
    (descr "Resistor SMD 1206 (3216 Metric), square (rectangular) end terminal, IPC_7351 nominal with elongated pad for handsoldering. (Body size source: http://www.tortai-tech.com/upload/download/2011102023233369053.pdf), generated with kicad-footprint-generator")
    (tags "resistor handsolder")
    (path /5AD9D504)
    (attr smd)
    (fp_text reference R1 (at 3.25 0 unlocked) (layer F.SilkS)
      (effects (font (size 1 1) (thickness 0.15)))
    )
    (fp_text value R (at 0 2 270) (layer F.Fab)
      (effects (font (size 1 1) (thickness 0.15)))
    )
    (fp_line (start -1.6 0.8) (end -1.6 -0.8) (layer F.Fab) (width 0.1))
    (fp_line (start -1.6 -0.8) (end 1.6 -0.8) (layer F.Fab) (width 0.1))
    (fp_line (start 1.6 -0.8) (end 1.6 0.8) (layer F.Fab) (width 0.1))
    (fp_line (start 1.6 0.8) (end -1.6 0.8) (layer F.Fab) (width 0.1))
    (fp_line (start -0.602064 -0.91) (end 0.602064 -0.91) (layer F.SilkS) (width 0.12))
    (fp_line (start -0.602064 0.91) (end 0.602064 0.91) (layer F.SilkS) (width 0.12))
    (fp_line (start -2.45 1.12) (end -2.45 -1.12) (layer F.CrtYd) (width 0.05))
    (fp_line (start -2.45 -1.12) (end 2.45 -1.12) (layer F.CrtYd) (width 0.05))
    (fp_line (start 2.45 -1.12) (end 2.45 1.12) (layer F.CrtYd) (width 0.05))
    (fp_line (start 2.45 1.12) (end -2.45 1.12) (layer F.CrtYd) (width 0.05))
    (fp_text user %R (at 0 0 270) (layer F.Fab)
      (effects (font (size 0.8 0.8) (thickness 0.12)))
    )
    (pad 1 smd roundrect (at -1.4875 0 270) (size 1.425 1.75) (layers F.Cu F.Paste F.Mask) (roundrect_rratio 0.175439)
      (net 1 5V))
    (pad 2 smd roundrect (at 1.4875 0 270) (size 1.425 1.75) (layers F.Cu F.Paste F.Mask) (roundrect_rratio 0.175439)
      (net 4 "Net-(R1-Pad2)"))
    (model ${KISYS3DMOD}/Resistor_SMD.3dshapes/R_1206_3216Metric.wrl
      (at (xyz 0 0 0))
      (scale (xyz 1 1 1))
      (rotate (xyz 0 0 0))
    )
  )

  (module Resistor_SMD:R_1206_3216Metric_Pad1.42x1.75mm_HandSolder (layer F.Cu) (tedit 5C718CB5) (tstamp 5C123F05)
    (at 136.433186 73.612176 270)
    (descr "Resistor SMD 1206 (3216 Metric), square (rectangular) end terminal, IPC_7351 nominal with elongated pad for handsoldering. (Body size source: http://www.tortai-tech.com/upload/download/2011102023233369053.pdf), generated with kicad-footprint-generator")
    (tags "resistor handsolder")
    (path /5AD9D588)
    (attr smd)
    (fp_text reference R2 (at 3.2625 0 unlocked) (layer F.SilkS)
      (effects (font (size 1 1) (thickness 0.15)))
    )
    (fp_text value R (at 0 1.82 270) (layer F.Fab)
      (effects (font (size 1 1) (thickness 0.15)))
    )
    (fp_text user %R (at 0 0 270) (layer F.Fab)
      (effects (font (size 0.8 0.8) (thickness 0.12)))
    )
    (fp_line (start 2.45 1.12) (end -2.45 1.12) (layer F.CrtYd) (width 0.05))
    (fp_line (start 2.45 -1.12) (end 2.45 1.12) (layer F.CrtYd) (width 0.05))
    (fp_line (start -2.45 -1.12) (end 2.45 -1.12) (layer F.CrtYd) (width 0.05))
    (fp_line (start -2.45 1.12) (end -2.45 -1.12) (layer F.CrtYd) (width 0.05))
    (fp_line (start -0.602064 0.91) (end 0.602064 0.91) (layer F.SilkS) (width 0.12))
    (fp_line (start -0.602064 -0.91) (end 0.602064 -0.91) (layer F.SilkS) (width 0.12))
    (fp_line (start 1.6 0.8) (end -1.6 0.8) (layer F.Fab) (width 0.1))
    (fp_line (start 1.6 -0.8) (end 1.6 0.8) (layer F.Fab) (width 0.1))
    (fp_line (start -1.6 -0.8) (end 1.6 -0.8) (layer F.Fab) (width 0.1))
    (fp_line (start -1.6 0.8) (end -1.6 -0.8) (layer F.Fab) (width 0.1))
    (pad 2 smd roundrect (at 1.4875 0 270) (size 1.425 1.75) (layers F.Cu F.Paste F.Mask) (roundrect_rratio 0.175439)
      (net 5 "Net-(R2-Pad2)"))
    (pad 1 smd roundrect (at -1.4875 0 270) (size 1.425 1.75) (layers F.Cu F.Paste F.Mask) (roundrect_rratio 0.175439)
      (net 1 5V))
    (model ${KISYS3DMOD}/Resistor_SMD.3dshapes/R_1206_3216Metric.wrl
      (at (xyz 0 0 0))
      (scale (xyz 1 1 1))
      (rotate (xyz 0 0 0))
    )
  )

  (module Resistor_SMD:R_1206_3216Metric_Pad1.42x1.75mm_HandSolder (layer F.Cu) (tedit 5C718CBA) (tstamp 5C123F15)
    (at 133.183186 73.612176 270)
    (descr "Resistor SMD 1206 (3216 Metric), square (rectangular) end terminal, IPC_7351 nominal with elongated pad for handsoldering. (Body size source: http://www.tortai-tech.com/upload/download/2011102023233369053.pdf), generated with kicad-footprint-generator")
    (tags "resistor handsolder")
    (path /5AD9D5B6)
    (attr smd)
    (fp_text reference R3 (at 3.2625 0 unlocked) (layer F.SilkS)
      (effects (font (size 1 1) (thickness 0.15)))
    )
    (fp_text value R (at 0 1.82 270) (layer F.Fab)
      (effects (font (size 1 1) (thickness 0.15)))
    )
    (fp_line (start -1.6 0.8) (end -1.6 -0.8) (layer F.Fab) (width 0.1))
    (fp_line (start -1.6 -0.8) (end 1.6 -0.8) (layer F.Fab) (width 0.1))
    (fp_line (start 1.6 -0.8) (end 1.6 0.8) (layer F.Fab) (width 0.1))
    (fp_line (start 1.6 0.8) (end -1.6 0.8) (layer F.Fab) (width 0.1))
    (fp_line (start -0.602064 -0.91) (end 0.602064 -0.91) (layer F.SilkS) (width 0.12))
    (fp_line (start -0.602064 0.91) (end 0.602064 0.91) (layer F.SilkS) (width 0.12))
    (fp_line (start -2.45 1.12) (end -2.45 -1.12) (layer F.CrtYd) (width 0.05))
    (fp_line (start -2.45 -1.12) (end 2.45 -1.12) (layer F.CrtYd) (width 0.05))
    (fp_line (start 2.45 -1.12) (end 2.45 1.12) (layer F.CrtYd) (width 0.05))
    (fp_line (start 2.45 1.12) (end -2.45 1.12) (layer F.CrtYd) (width 0.05))
    (fp_text user %R (at 0 0 270) (layer F.Fab)
      (effects (font (size 0.8 0.8) (thickness 0.12)))
    )
    (pad 1 smd roundrect (at -1.4875 0 270) (size 1.425 1.75) (layers F.Cu F.Paste F.Mask) (roundrect_rratio 0.175439)
      (net 1 5V))
    (pad 2 smd roundrect (at 1.4875 0 270) (size 1.425 1.75) (layers F.Cu F.Paste F.Mask) (roundrect_rratio 0.175439)
      (net 6 "Net-(R3-Pad2)"))
    (model ${KISYS3DMOD}/Resistor_SMD.3dshapes/R_1206_3216Metric.wrl
      (at (xyz 0 0 0))
      (scale (xyz 1 1 1))
      (rotate (xyz 0 0 0))
    )
  )

  (gr_text +5V (at 101.183186 67.362176 270) (layer F.SilkS) (tstamp 5C1B3FFC)
    (effects (font (size 0.8 0.8) (thickness 0.1)))
  )
  (gr_text GND (at 101.183186 77.612176 270) (layer F.SilkS) (tstamp 5C1B3FF8)
    (effects (font (size 0.8 0.8) (thickness 0.1)))
  )
  (gr_text GND (at 125.183186 76.112176 270) (layer B.SilkS) (tstamp 5C1B3F3C)
    (effects (font (size 0.8 0.8) (thickness 0.1)) (justify mirror))
  )
  (gr_text +5V (at 125.183186 71.112176 270) (layer B.SilkS)
    (effects (font (size 0.8 0.8) (thickness 0.1)) (justify mirror))
  )
  (gr_text "Dégaine v2.1\nCrafting Labs" (at 112.433186 73.362176) (layer F.SilkS)
    (effects (font (size 1.5 1.5) (thickness 0.3)))
  )
  (gr_line (start 96.433186 63.112176) (end 163.183186 63.112176) (layer Edge.Cuts) (width 0.2))
  (gr_line (start 96.433186 83.362176) (end 96.433186 63.112176) (layer Edge.Cuts) (width 0.2))
  (gr_line (start 163.183186 83.362176) (end 96.433186 83.362176) (layer Edge.Cuts) (width 0.2))
  (gr_line (start 163.183186 63.112176) (end 163.183186 83.362176) (layer Edge.Cuts) (width 0.2))

  (segment (start 127.683186 69.762176) (end 127.683186 70.862176) (width 0.25) (layer F.Cu) (net 1))
  (segment (start 125.413186 67.492176) (end 127.683186 69.762176) (width 0.25) (layer F.Cu) (net 1))
  (segment (start 98.933186 67.492176) (end 125.413186 67.492176) (width 0.25) (layer F.Cu) (net 1))
  (segment (start 134.443186 67.492176) (end 136.313186 65.622176) (width 0.25) (layer F.Cu) (net 1))
  (segment (start 138.708186 72.124676) (end 133.183186 72.124676) (width 0.25) (layer F.Cu) (net 1))
  (segment (start 139.683186 72.124676) (end 138.708186 72.124676) (width 0.25) (layer F.Cu) (net 1))
  (segment (start 133.183186 72.124676) (end 133.183186 67.492176) (width 0.25) (layer F.Cu) (net 1))
  (segment (start 125.413186 67.492176) (end 133.183186 67.492176) (width 0.25) (layer F.Cu) (net 1))
  (segment (start 133.183186 67.492176) (end 134.443186 67.492176) (width 0.25) (layer F.Cu) (net 1))
  (segment (start 133.773186 79.492176) (end 133.773186 80.862176) (width 0.25) (layer B.Cu) (net 2))
  (segment (start 127.683186 73.402176) (end 133.773186 79.492176) (width 0.25) (layer B.Cu) (net 2))
  (segment (start 138.708186 75.099676) (end 136.445686 77.362176) (width 0.25) (layer F.Cu) (net 4))
  (segment (start 139.683186 75.099676) (end 138.708186 75.099676) (width 0.25) (layer F.Cu) (net 4))
  (segment (start 134.733186 77.362176) (end 131.233186 80.862176) (width 0.25) (layer F.Cu) (net 4))
  (segment (start 136.445686 77.362176) (end 134.733186 77.362176) (width 0.25) (layer F.Cu) (net 4))
  (segment (start 140.658186 75.099676) (end 143.920686 78.362176) (width 0.25) (layer F.Cu) (net 4))
  (segment (start 139.683186 75.099676) (end 140.658186 75.099676) (width 0.25) (layer F.Cu) (net 4))
  (segment (start 154.683186 78.362176) (end 156.683186 80.362176) (width 0.25) (layer F.Cu) (net 4))
  (segment (start 143.920686 78.362176) (end 154.683186 78.362176) (width 0.25) (layer F.Cu) (net 4))
  (segment (start 135.661839 75.871023) (end 136.433186 75.099676) (width 0.25) (layer F.Cu) (net 5))
  (segment (start 135.170686 76.362176) (end 135.661839 75.871023) (width 0.25) (layer F.Cu) (net 5))
  (segment (start 133.193186 76.362176) (end 135.170686 76.362176) (width 0.25) (layer F.Cu) (net 5))
  (segment (start 128.693186 80.862176) (end 133.193186 76.362176) (width 0.25) (layer F.Cu) (net 5))
  (segment (start 143.633176 73.912186) (end 151.683186 65.862176) (width 0.25) (layer F.Cu) (net 5))
  (segment (start 137.633176 73.912186) (end 143.633176 73.912186) (width 0.25) (layer F.Cu) (net 5))
  (segment (start 137.217033 74.328329) (end 137.633176 73.912186) (width 0.25) (layer F.Cu) (net 5))
  (segment (start 136.433186 75.099676) (end 137.204533 74.328329) (width 0.25) (layer F.Cu) (net 5))
  (segment (start 137.204533 74.328329) (end 137.217033 74.328329) (width 0.25) (layer F.Cu) (net 5))
  (segment (start 126.953185 80.062177) (end 126.153186 80.862176) (width 0.25) (layer F.Cu) (net 6))
  (segment (start 132.411839 75.871023) (end 131.144339 75.871023) (width 0.25) (layer F.Cu) (net 6))
  (segment (start 131.144339 75.871023) (end 126.953185 80.062177) (width 0.25) (layer F.Cu) (net 6))
  (segment (start 133.183186 75.099676) (end 132.411839 75.871023) (width 0.25) (layer F.Cu) (net 6))
  (segment (start 134.158186 75.099676) (end 135.895686 73.362176) (width 0.25) (layer F.Cu) (net 6))
  (segment (start 133.183186 75.099676) (end 134.158186 75.099676) (width 0.25) (layer F.Cu) (net 6))
  (segment (start 135.895686 73.362176) (end 141.933186 73.362176) (width 0.25) (layer F.Cu) (net 6))
  (segment (start 141.933186 73.362176) (end 151.183186 64.112176) (width 0.25) (layer F.Cu) (net 6))
  (segment (start 156.683186 64.612176) (end 156.683186 65.862176) (width 0.25) (layer F.Cu) (net 6))
  (segment (start 156.183186 64.112176) (end 156.683186 64.612176) (width 0.25) (layer F.Cu) (net 6))
  (segment (start 151.183186 64.112176) (end 156.183186 64.112176) (width 0.25) (layer F.Cu) (net 6))

  (zone (net 3) (net_name GND) (layer B.Cu) (tstamp 0) (hatch edge 0.508)
    (connect_pads (clearance 0.508))
    (min_thickness 0.254)
    (fill yes (arc_segments 16) (thermal_gap 0.508) (thermal_bridge_width 0.508))
    (polygon
      (pts
        (xy 163.183186 63.112176) (xy 163.183186 83.362176) (xy 96.433186 83.362176) (xy 96.433186 63.112176)
      )
    )
    (filled_polygon
      (pts
        (xy 162.448187 82.627176) (xy 97.168186 82.627176) (xy 97.168186 80.862176) (xy 106.910073 80.862176) (xy 107.021446 81.422085)
        (xy 107.338609 81.896753) (xy 107.813277 82.213916) (xy 108.231853 82.297176) (xy 108.514519 82.297176) (xy 108.933095 82.213916)
        (xy 109.407763 81.896753) (xy 109.643186 81.544418) (xy 109.878609 81.896753) (xy 110.353277 82.213916) (xy 110.771853 82.297176)
        (xy 111.054519 82.297176) (xy 111.473095 82.213916) (xy 111.947763 81.896753) (xy 112.183186 81.544418) (xy 112.418609 81.896753)
        (xy 112.893277 82.213916) (xy 113.311853 82.297176) (xy 113.594519 82.297176) (xy 114.013095 82.213916) (xy 114.487763 81.896753)
        (xy 114.723186 81.544418) (xy 114.958609 81.896753) (xy 115.433277 82.213916) (xy 115.851853 82.297176) (xy 116.134519 82.297176)
        (xy 116.553095 82.213916) (xy 117.027763 81.896753) (xy 117.263186 81.544418) (xy 117.498609 81.896753) (xy 117.973277 82.213916)
        (xy 118.391853 82.297176) (xy 118.674519 82.297176) (xy 119.093095 82.213916) (xy 119.567763 81.896753) (xy 119.803186 81.544418)
        (xy 120.038609 81.896753) (xy 120.513277 82.213916) (xy 120.931853 82.297176) (xy 121.214519 82.297176) (xy 121.633095 82.213916)
        (xy 122.107763 81.896753) (xy 122.343186 81.544418) (xy 122.578609 81.896753) (xy 123.053277 82.213916) (xy 123.471853 82.297176)
        (xy 123.754519 82.297176) (xy 124.173095 82.213916) (xy 124.647763 81.896753) (xy 124.883186 81.544418) (xy 125.118609 81.896753)
        (xy 125.593277 82.213916) (xy 126.011853 82.297176) (xy 126.294519 82.297176) (xy 126.713095 82.213916) (xy 127.187763 81.896753)
        (xy 127.423186 81.544418) (xy 127.658609 81.896753) (xy 128.133277 82.213916) (xy 128.551853 82.297176) (xy 128.834519 82.297176)
        (xy 129.253095 82.213916) (xy 129.727763 81.896753) (xy 129.963186 81.544418) (xy 130.198609 81.896753) (xy 130.673277 82.213916)
        (xy 131.091853 82.297176) (xy 131.374519 82.297176) (xy 131.793095 82.213916) (xy 132.267763 81.896753) (xy 132.503186 81.544418)
        (xy 132.738609 81.896753) (xy 133.213277 82.213916) (xy 133.631853 82.297176) (xy 133.914519 82.297176) (xy 134.333095 82.213916)
        (xy 134.807763 81.896753) (xy 135.043186 81.544418) (xy 135.278609 81.896753) (xy 135.753277 82.213916) (xy 136.171853 82.297176)
        (xy 136.454519 82.297176) (xy 136.873095 82.213916) (xy 137.347763 81.896753) (xy 137.583186 81.544418) (xy 137.818609 81.896753)
        (xy 138.293277 82.213916) (xy 138.711853 82.297176) (xy 138.994519 82.297176) (xy 139.413095 82.213916) (xy 139.887763 81.896753)
        (xy 140.123186 81.544418) (xy 140.358609 81.896753) (xy 140.833277 82.213916) (xy 141.251853 82.297176) (xy 141.534519 82.297176)
        (xy 141.953095 82.213916) (xy 142.427763 81.896753) (xy 142.508401 81.77607) (xy 142.535029 81.909941) (xy 142.675377 82.119985)
        (xy 142.885421 82.260333) (xy 143.133186 82.309616) (xy 144.733186 82.309616) (xy 144.980951 82.260333) (xy 145.190995 82.119985)
        (xy 145.331343 81.909941) (xy 145.380626 81.662176) (xy 145.380626 81.514708) (xy 150.710259 81.514708) (xy 150.808922 81.781563)
        (xy 151.418647 82.008084) (xy 152.068646 81.984032) (xy 152.55745 81.781563) (xy 152.656113 81.514708) (xy 151.683186 80.541781)
        (xy 150.710259 81.514708) (xy 145.380626 81.514708) (xy 145.380626 80.097637) (xy 150.037278 80.097637) (xy 150.06133 80.747636)
        (xy 150.263799 81.23644) (xy 150.530654 81.335103) (xy 151.503581 80.362176) (xy 151.862791 80.362176) (xy 152.835718 81.335103)
        (xy 153.102573 81.23644) (xy 153.329094 80.626715) (xy 153.307271 80.036954) (xy 155.048186 80.036954) (xy 155.048186 80.687398)
        (xy 155.2971 81.288329) (xy 155.757033 81.748262) (xy 156.357964 81.997176) (xy 157.008408 81.997176) (xy 157.609339 81.748262)
        (xy 158.069272 81.288329) (xy 158.318186 80.687398) (xy 158.318186 80.036954) (xy 158.069272 79.436023) (xy 157.609339 78.97609)
        (xy 157.008408 78.727176) (xy 156.357964 78.727176) (xy 155.757033 78.97609) (xy 155.2971 79.436023) (xy 155.048186 80.036954)
        (xy 153.307271 80.036954) (xy 153.305042 79.976716) (xy 153.102573 79.487912) (xy 152.835718 79.389249) (xy 151.862791 80.362176)
        (xy 151.503581 80.362176) (xy 150.530654 79.389249) (xy 150.263799 79.487912) (xy 150.037278 80.097637) (xy 145.380626 80.097637)
        (xy 145.380626 80.062176) (xy 145.331343 79.814411) (xy 145.190995 79.604367) (xy 144.980951 79.464019) (xy 144.733186 79.414736)
        (xy 143.133186 79.414736) (xy 142.885421 79.464019) (xy 142.675377 79.604367) (xy 142.535029 79.814411) (xy 142.508401 79.948282)
        (xy 142.427763 79.827599) (xy 141.953095 79.510436) (xy 141.534519 79.427176) (xy 141.251853 79.427176) (xy 140.833277 79.510436)
        (xy 140.358609 79.827599) (xy 140.123186 80.179934) (xy 139.887763 79.827599) (xy 139.413095 79.510436) (xy 138.994519 79.427176)
        (xy 138.711853 79.427176) (xy 138.293277 79.510436) (xy 137.818609 79.827599) (xy 137.583186 80.179934) (xy 137.347763 79.827599)
        (xy 136.873095 79.510436) (xy 136.454519 79.427176) (xy 136.171853 79.427176) (xy 135.753277 79.510436) (xy 135.278609 79.827599)
        (xy 135.043186 80.179934) (xy 134.807763 79.827599) (xy 134.533186 79.644133) (xy 134.533186 79.567024) (xy 134.548074 79.492176)
        (xy 134.533186 79.417328) (xy 134.533186 79.417324) (xy 134.491876 79.209644) (xy 150.710259 79.209644) (xy 151.683186 80.182571)
        (xy 152.656113 79.209644) (xy 152.55745 78.942789) (xy 151.947725 78.716268) (xy 151.297726 78.74032) (xy 150.808922 78.942789)
        (xy 150.710259 79.209644) (xy 134.491876 79.209644) (xy 134.48909 79.195639) (xy 134.321115 78.944247) (xy 134.257659 78.901847)
        (xy 129.124395 73.768584) (xy 129.197278 73.402176) (xy 129.100892 72.917607) (xy 146.348186 72.917607) (xy 146.348186 73.806745)
        (xy 146.688445 74.628202) (xy 147.31716 75.256917) (xy 148.138617 75.597176) (xy 149.027755 75.597176) (xy 149.849212 75.256917)
        (xy 150.477927 74.628202) (xy 150.818186 73.806745) (xy 150.818186 72.917607) (xy 157.548186 72.917607) (xy 157.548186 73.806745)
        (xy 157.888445 74.628202) (xy 158.51716 75.256917) (xy 159.338617 75.597176) (xy 160.227755 75.597176) (xy 161.049212 75.256917)
        (xy 161.677927 74.628202) (xy 162.018186 73.806745) (xy 162.018186 72.917607) (xy 161.677927 72.09615) (xy 161.049212 71.467435)
        (xy 160.227755 71.127176) (xy 159.338617 71.127176) (xy 158.51716 71.467435) (xy 157.888445 72.09615) (xy 157.548186 72.917607)
        (xy 150.818186 72.917607) (xy 150.477927 72.09615) (xy 149.849212 71.467435) (xy 149.027755 71.127176) (xy 148.138617 71.127176)
        (xy 147.31716 71.467435) (xy 146.688445 72.09615) (xy 146.348186 72.917607) (xy 129.100892 72.917607) (xy 129.082025 72.822758)
        (xy 128.753811 72.331551) (xy 128.735567 72.31936) (xy 128.780951 72.310333) (xy 128.990995 72.169985) (xy 129.131343 71.959941)
        (xy 129.180626 71.712176) (xy 129.180626 70.012176) (xy 129.131343 69.764411) (xy 128.990995 69.554367) (xy 128.780951 69.414019)
        (xy 128.533186 69.364736) (xy 126.833186 69.364736) (xy 126.585421 69.414019) (xy 126.375377 69.554367) (xy 126.235029 69.764411)
        (xy 126.185746 70.012176) (xy 126.185746 71.712176) (xy 126.235029 71.959941) (xy 126.375377 72.169985) (xy 126.585421 72.310333)
        (xy 126.630805 72.31936) (xy 126.612561 72.331551) (xy 126.284347 72.822758) (xy 126.169094 73.402176) (xy 126.284347 73.981594)
        (xy 126.612561 74.472801) (xy 126.931664 74.686019) (xy 126.801828 74.746993) (xy 126.411541 75.175252) (xy 126.24171 75.585286)
        (xy 126.363031 75.815176) (xy 127.556186 75.815176) (xy 127.556186 75.795176) (xy 127.810186 75.795176) (xy 127.810186 75.815176)
        (xy 127.830186 75.815176) (xy 127.830186 76.069176) (xy 127.810186 76.069176) (xy 127.810186 77.262995) (xy 128.040078 77.383662)
        (xy 128.564544 77.137359) (xy 128.954831 76.7091) (xy 129.124662 76.299066) (xy 129.003342 76.069178) (xy 129.168186 76.069178)
        (xy 129.168186 75.961977) (xy 132.915567 79.709359) (xy 132.738609 79.827599) (xy 132.503186 80.179934) (xy 132.267763 79.827599)
        (xy 131.793095 79.510436) (xy 131.374519 79.427176) (xy 131.091853 79.427176) (xy 130.673277 79.510436) (xy 130.198609 79.827599)
        (xy 129.963186 80.179934) (xy 129.727763 79.827599) (xy 129.253095 79.510436) (xy 128.834519 79.427176) (xy 128.551853 79.427176)
        (xy 128.133277 79.510436) (xy 127.658609 79.827599) (xy 127.423186 80.179934) (xy 127.187763 79.827599) (xy 126.713095 79.510436)
        (xy 126.294519 79.427176) (xy 126.011853 79.427176) (xy 125.593277 79.510436) (xy 125.118609 79.827599) (xy 124.883186 80.179934)
        (xy 124.647763 79.827599) (xy 124.173095 79.510436) (xy 123.754519 79.427176) (xy 123.471853 79.427176) (xy 123.053277 79.510436)
        (xy 122.578609 79.827599) (xy 122.343186 80.179934) (xy 122.107763 79.827599) (xy 121.633095 79.510436) (xy 121.214519 79.427176)
        (xy 120.931853 79.427176) (xy 120.513277 79.510436) (xy 120.038609 79.827599) (xy 119.803186 80.179934) (xy 119.567763 79.827599)
        (xy 119.093095 79.510436) (xy 118.674519 79.427176) (xy 118.391853 79.427176) (xy 117.973277 79.510436) (xy 117.498609 79.827599)
        (xy 117.263186 80.179934) (xy 117.027763 79.827599) (xy 116.553095 79.510436) (xy 116.134519 79.427176) (xy 115.851853 79.427176)
        (xy 115.433277 79.510436) (xy 114.958609 79.827599) (xy 114.723186 80.179934) (xy 114.487763 79.827599) (xy 114.013095 79.510436)
        (xy 113.594519 79.427176) (xy 113.311853 79.427176) (xy 112.893277 79.510436) (xy 112.418609 79.827599) (xy 112.183186 80.179934)
        (xy 111.947763 79.827599) (xy 111.473095 79.510436) (xy 111.054519 79.427176) (xy 110.771853 79.427176) (xy 110.353277 79.510436)
        (xy 109.878609 79.827599) (xy 109.643186 80.179934) (xy 109.407763 79.827599) (xy 108.933095 79.510436) (xy 108.514519 79.427176)
        (xy 108.231853 79.427176) (xy 107.813277 79.510436) (xy 107.338609 79.827599) (xy 107.021446 80.302267) (xy 106.910073 80.862176)
        (xy 97.168186 80.862176) (xy 97.168186 78.009066) (xy 97.49171 78.009066) (xy 97.661541 78.4191) (xy 98.051828 78.847359)
        (xy 98.576294 79.093662) (xy 98.806186 78.972995) (xy 98.806186 77.779176) (xy 99.060186 77.779176) (xy 99.060186 78.972995)
        (xy 99.290078 79.093662) (xy 99.814544 78.847359) (xy 100.204831 78.4191) (xy 100.374662 78.009066) (xy 100.253341 77.779176)
        (xy 99.060186 77.779176) (xy 98.806186 77.779176) (xy 97.613031 77.779176) (xy 97.49171 78.009066) (xy 97.168186 78.009066)
        (xy 97.168186 70.032176) (xy 97.419094 70.032176) (xy 97.534347 70.611594) (xy 97.862561 71.102801) (xy 98.160947 71.302176)
        (xy 97.862561 71.501551) (xy 97.534347 71.992758) (xy 97.419094 72.572176) (xy 97.534347 73.151594) (xy 97.862561 73.642801)
        (xy 98.160947 73.842176) (xy 97.862561 74.041551) (xy 97.534347 74.532758) (xy 97.419094 75.112176) (xy 97.534347 75.691594)
        (xy 97.862561 76.182801) (xy 98.181664 76.396019) (xy 98.051828 76.456993) (xy 97.661541 76.885252) (xy 97.49171 77.295286)
        (xy 97.613031 77.525176) (xy 98.806186 77.525176) (xy 98.806186 77.505176) (xy 99.060186 77.505176) (xy 99.060186 77.525176)
        (xy 100.253341 77.525176) (xy 100.374662 77.295286) (xy 100.204831 76.885252) (xy 99.814544 76.456993) (xy 99.684708 76.396019)
        (xy 99.829808 76.299066) (xy 126.24171 76.299066) (xy 126.411541 76.7091) (xy 126.801828 77.137359) (xy 127.326294 77.383662)
        (xy 127.556186 77.262995) (xy 127.556186 76.069176) (xy 126.363031 76.069176) (xy 126.24171 76.299066) (xy 99.829808 76.299066)
        (xy 100.003811 76.182801) (xy 100.332025 75.691594) (xy 100.447278 75.112176) (xy 100.332025 74.532758) (xy 100.003811 74.041551)
        (xy 99.705425 73.842176) (xy 100.003811 73.642801) (xy 100.332025 73.151594) (xy 100.447278 72.572176) (xy 100.332025 71.992758)
        (xy 100.003811 71.501551) (xy 99.705425 71.302176) (xy 100.003811 71.102801) (xy 100.332025 70.611594) (xy 100.447278 70.032176)
        (xy 100.332025 69.452758) (xy 100.003811 68.961551) (xy 99.985567 68.94936) (xy 100.030951 68.940333) (xy 100.240995 68.799985)
        (xy 100.381343 68.589941) (xy 100.430626 68.342176) (xy 100.430626 66.642176) (xy 100.381343 66.394411) (xy 100.240995 66.184367)
        (xy 100.030951 66.044019) (xy 99.783186 65.994736) (xy 98.083186 65.994736) (xy 97.835421 66.044019) (xy 97.625377 66.184367)
        (xy 97.485029 66.394411) (xy 97.435746 66.642176) (xy 97.435746 68.342176) (xy 97.485029 68.589941) (xy 97.625377 68.799985)
        (xy 97.835421 68.940333) (xy 97.880805 68.94936) (xy 97.862561 68.961551) (xy 97.534347 69.452758) (xy 97.419094 70.032176)
        (xy 97.168186 70.032176) (xy 97.168186 65.622176) (xy 106.910073 65.622176) (xy 107.021446 66.182085) (xy 107.338609 66.656753)
        (xy 107.813277 66.973916) (xy 108.231853 67.057176) (xy 108.514519 67.057176) (xy 108.933095 66.973916) (xy 109.407763 66.656753)
        (xy 109.643186 66.304418) (xy 109.878609 66.656753) (xy 110.353277 66.973916) (xy 110.771853 67.057176) (xy 111.054519 67.057176)
        (xy 111.473095 66.973916) (xy 111.947763 66.656753) (xy 112.183186 66.304418) (xy 112.418609 66.656753) (xy 112.893277 66.973916)
        (xy 113.311853 67.057176) (xy 113.594519 67.057176) (xy 114.013095 66.973916) (xy 114.487763 66.656753) (xy 114.723186 66.304418)
        (xy 114.958609 66.656753) (xy 115.433277 66.973916) (xy 115.851853 67.057176) (xy 116.134519 67.057176) (xy 116.553095 66.973916)
        (xy 117.027763 66.656753) (xy 117.263186 66.304418) (xy 117.498609 66.656753) (xy 117.973277 66.973916) (xy 118.391853 67.057176)
        (xy 118.674519 67.057176) (xy 119.093095 66.973916) (xy 119.567763 66.656753) (xy 119.803186 66.304418) (xy 120.038609 66.656753)
        (xy 120.513277 66.973916) (xy 120.931853 67.057176) (xy 121.214519 67.057176) (xy 121.633095 66.973916) (xy 122.107763 66.656753)
        (xy 122.343186 66.304418) (xy 122.578609 66.656753) (xy 123.053277 66.973916) (xy 123.471853 67.057176) (xy 123.754519 67.057176)
        (xy 124.173095 66.973916) (xy 124.647763 66.656753) (xy 124.883186 66.304418) (xy 125.118609 66.656753) (xy 125.593277 66.973916)
        (xy 126.011853 67.057176) (xy 126.294519 67.057176) (xy 126.713095 66.973916) (xy 127.187763 66.656753) (xy 127.423186 66.304418)
        (xy 127.658609 66.656753) (xy 128.133277 66.973916) (xy 128.551853 67.057176) (xy 128.834519 67.057176) (xy 129.253095 66.973916)
        (xy 129.727763 66.656753) (xy 129.963186 66.304418) (xy 130.198609 66.656753) (xy 130.673277 66.973916) (xy 131.091853 67.057176)
        (xy 131.374519 67.057176) (xy 131.793095 66.973916) (xy 132.267763 66.656753) (xy 132.503186 66.304418) (xy 132.738609 66.656753)
        (xy 133.213277 66.973916) (xy 133.631853 67.057176) (xy 133.914519 67.057176) (xy 134.333095 66.973916) (xy 134.807763 66.656753)
        (xy 135.043186 66.304418) (xy 135.278609 66.656753) (xy 135.753277 66.973916) (xy 136.171853 67.057176) (xy 136.454519 67.057176)
        (xy 136.873095 66.973916) (xy 137.347763 66.656753) (xy 137.583186 66.304418) (xy 137.818609 66.656753) (xy 138.293277 66.973916)
        (xy 138.711853 67.057176) (xy 138.994519 67.057176) (xy 139.413095 66.973916) (xy 139.887763 66.656753) (xy 140.144133 66.273068)
        (xy 140.240797 66.47731) (xy 140.655763 66.853217) (xy 141.044147 67.01408) (xy 141.266186 66.892091) (xy 141.266186 65.749176)
        (xy 141.246186 65.749176) (xy 141.246186 65.495176) (xy 141.266186 65.495176) (xy 141.266186 64.352261) (xy 141.520186 64.352261)
        (xy 141.520186 65.495176) (xy 141.540186 65.495176) (xy 141.540186 65.749176) (xy 141.520186 65.749176) (xy 141.520186 66.892091)
        (xy 141.742225 67.01408) (xy 142.130609 66.853217) (xy 142.545575 66.47731) (xy 142.642239 66.273068) (xy 142.898609 66.656753)
        (xy 143.373277 66.973916) (xy 143.791853 67.057176) (xy 144.074519 67.057176) (xy 144.493095 66.973916) (xy 144.967763 66.656753)
        (xy 145.284926 66.182085) (xy 145.396299 65.622176) (xy 145.379348 65.536954) (xy 150.048186 65.536954) (xy 150.048186 66.187398)
        (xy 150.2971 66.788329) (xy 150.757033 67.248262) (xy 151.357964 67.497176) (xy 152.008408 67.497176) (xy 152.609339 67.248262)
        (xy 153.0247 66.832901) (xy 153.030654 66.835103) (xy 154.003581 65.862176) (xy 153.030654 64.889249) (xy 153.0247 64.891451)
        (xy 152.842893 64.709644) (xy 153.210259 64.709644) (xy 154.183186 65.682571) (xy 154.197329 65.668429) (xy 154.376934 65.848034)
        (xy 154.362791 65.862176) (xy 154.376934 65.876319) (xy 154.197329 66.055924) (xy 154.183186 66.041781) (xy 153.210259 67.014708)
        (xy 153.308922 67.281563) (xy 153.918647 67.508084) (xy 154.568646 67.484032) (xy 155.05745 67.281563) (xy 155.108124 67.144505)
        (xy 155.225377 67.319985) (xy 155.435421 67.460333) (xy 155.683186 67.509616) (xy 157.683186 67.509616) (xy 157.930951 67.460333)
        (xy 158.140995 67.319985) (xy 158.281343 67.109941) (xy 158.330626 66.862176) (xy 158.330626 64.862176) (xy 158.281343 64.614411)
        (xy 158.140995 64.404367) (xy 157.930951 64.264019) (xy 157.683186 64.214736) (xy 155.683186 64.214736) (xy 155.435421 64.264019)
        (xy 155.225377 64.404367) (xy 155.108124 64.579847) (xy 155.05745 64.442789) (xy 154.447725 64.216268) (xy 153.797726 64.24032)
        (xy 153.308922 64.442789) (xy 153.210259 64.709644) (xy 152.842893 64.709644) (xy 152.609339 64.47609) (xy 152.008408 64.227176)
        (xy 151.357964 64.227176) (xy 150.757033 64.47609) (xy 150.2971 64.936023) (xy 150.048186 65.536954) (xy 145.379348 65.536954)
        (xy 145.284926 65.062267) (xy 144.967763 64.587599) (xy 144.493095 64.270436) (xy 144.074519 64.187176) (xy 143.791853 64.187176)
        (xy 143.373277 64.270436) (xy 142.898609 64.587599) (xy 142.642239 64.971284) (xy 142.545575 64.767042) (xy 142.130609 64.391135)
        (xy 141.742225 64.230272) (xy 141.520186 64.352261) (xy 141.266186 64.352261) (xy 141.044147 64.230272) (xy 140.655763 64.391135)
        (xy 140.240797 64.767042) (xy 140.144133 64.971284) (xy 139.887763 64.587599) (xy 139.413095 64.270436) (xy 138.994519 64.187176)
        (xy 138.711853 64.187176) (xy 138.293277 64.270436) (xy 137.818609 64.587599) (xy 137.583186 64.939934) (xy 137.347763 64.587599)
        (xy 136.873095 64.270436) (xy 136.454519 64.187176) (xy 136.171853 64.187176) (xy 135.753277 64.270436) (xy 135.278609 64.587599)
        (xy 135.043186 64.939934) (xy 134.807763 64.587599) (xy 134.333095 64.270436) (xy 133.914519 64.187176) (xy 133.631853 64.187176)
        (xy 133.213277 64.270436) (xy 132.738609 64.587599) (xy 132.503186 64.939934) (xy 132.267763 64.587599) (xy 131.793095 64.270436)
        (xy 131.374519 64.187176) (xy 131.091853 64.187176) (xy 130.673277 64.270436) (xy 130.198609 64.587599) (xy 129.963186 64.939934)
        (xy 129.727763 64.587599) (xy 129.253095 64.270436) (xy 128.834519 64.187176) (xy 128.551853 64.187176) (xy 128.133277 64.270436)
        (xy 127.658609 64.587599) (xy 127.423186 64.939934) (xy 127.187763 64.587599) (xy 126.713095 64.270436) (xy 126.294519 64.187176)
        (xy 126.011853 64.187176) (xy 125.593277 64.270436) (xy 125.118609 64.587599) (xy 124.883186 64.939934) (xy 124.647763 64.587599)
        (xy 124.173095 64.270436) (xy 123.754519 64.187176) (xy 123.471853 64.187176) (xy 123.053277 64.270436) (xy 122.578609 64.587599)
        (xy 122.343186 64.939934) (xy 122.107763 64.587599) (xy 121.633095 64.270436) (xy 121.214519 64.187176) (xy 120.931853 64.187176)
        (xy 120.513277 64.270436) (xy 120.038609 64.587599) (xy 119.803186 64.939934) (xy 119.567763 64.587599) (xy 119.093095 64.270436)
        (xy 118.674519 64.187176) (xy 118.391853 64.187176) (xy 117.973277 64.270436) (xy 117.498609 64.587599) (xy 117.263186 64.939934)
        (xy 117.027763 64.587599) (xy 116.553095 64.270436) (xy 116.134519 64.187176) (xy 115.851853 64.187176) (xy 115.433277 64.270436)
        (xy 114.958609 64.587599) (xy 114.723186 64.939934) (xy 114.487763 64.587599) (xy 114.013095 64.270436) (xy 113.594519 64.187176)
        (xy 113.311853 64.187176) (xy 112.893277 64.270436) (xy 112.418609 64.587599) (xy 112.183186 64.939934) (xy 111.947763 64.587599)
        (xy 111.473095 64.270436) (xy 111.054519 64.187176) (xy 110.771853 64.187176) (xy 110.353277 64.270436) (xy 109.878609 64.587599)
        (xy 109.643186 64.939934) (xy 109.407763 64.587599) (xy 108.933095 64.270436) (xy 108.514519 64.187176) (xy 108.231853 64.187176)
        (xy 107.813277 64.270436) (xy 107.338609 64.587599) (xy 107.021446 65.062267) (xy 106.910073 65.622176) (xy 97.168186 65.622176)
        (xy 97.168186 63.847176) (xy 162.448186 63.847176)
      )
    )
  )
  (zone (net 3) (net_name GND) (layer F.Cu) (tstamp 0) (hatch edge 0.508)
    (connect_pads (clearance 0.508))
    (min_thickness 0.254)
    (fill yes (arc_segments 16) (thermal_gap 0.508) (thermal_bridge_width 0.508))
    (polygon
      (pts
        (xy 163.183186 63.112176) (xy 163.183186 83.362176) (xy 96.433186 83.362176) (xy 96.433186 63.112176)
      )
    )
    (filled_polygon
      (pts
        (xy 141.618385 72.602176) (xy 141.202642 72.602176) (xy 141.205626 72.587176) (xy 141.205626 71.662176) (xy 141.137312 71.318741)
        (xy 140.942772 71.02759) (xy 140.651621 70.83305) (xy 140.308186 70.764736) (xy 139.058186 70.764736) (xy 138.714751 70.83305)
        (xy 138.4236 71.02759) (xy 138.22906 71.318741) (xy 138.219923 71.364676) (xy 137.896449 71.364676) (xy 137.887312 71.318741)
        (xy 137.692772 71.02759) (xy 137.401621 70.83305) (xy 137.058186 70.764736) (xy 135.808186 70.764736) (xy 135.464751 70.83305)
        (xy 135.1736 71.02759) (xy 134.97906 71.318741) (xy 134.969923 71.364676) (xy 134.646449 71.364676) (xy 134.637312 71.318741)
        (xy 134.442772 71.02759) (xy 134.151621 70.83305) (xy 133.943186 70.791589) (xy 133.943186 68.252176) (xy 134.368339 68.252176)
        (xy 134.443186 68.267064) (xy 134.518033 68.252176) (xy 134.518038 68.252176) (xy 134.739723 68.20808) (xy 134.991115 68.040105)
        (xy 135.033517 67.976646) (xy 135.9893 67.020864) (xy 136.171853 67.057176) (xy 136.454519 67.057176) (xy 136.873095 66.973916)
        (xy 137.347763 66.656753) (xy 137.583186 66.304418) (xy 137.818609 66.656753) (xy 138.293277 66.973916) (xy 138.711853 67.057176)
        (xy 138.994519 67.057176) (xy 139.413095 66.973916) (xy 139.887763 66.656753) (xy 140.144133 66.273068) (xy 140.240797 66.47731)
        (xy 140.655763 66.853217) (xy 141.044147 67.01408) (xy 141.266186 66.892091) (xy 141.266186 65.749176) (xy 141.246186 65.749176)
        (xy 141.246186 65.495176) (xy 141.266186 65.495176) (xy 141.266186 64.352261) (xy 141.520186 64.352261) (xy 141.520186 65.495176)
        (xy 141.540186 65.495176) (xy 141.540186 65.749176) (xy 141.520186 65.749176) (xy 141.520186 66.892091) (xy 141.742225 67.01408)
        (xy 142.130609 66.853217) (xy 142.545575 66.47731) (xy 142.642239 66.273068) (xy 142.898609 66.656753) (xy 143.373277 66.973916)
        (xy 143.791853 67.057176) (xy 144.074519 67.057176) (xy 144.493095 66.973916) (xy 144.967763 66.656753) (xy 145.284926 66.182085)
        (xy 145.396299 65.622176) (xy 145.284926 65.062267) (xy 144.967763 64.587599) (xy 144.493095 64.270436) (xy 144.074519 64.187176)
        (xy 143.791853 64.187176) (xy 143.373277 64.270436) (xy 142.898609 64.587599) (xy 142.642239 64.971284) (xy 142.545575 64.767042)
        (xy 142.130609 64.391135) (xy 141.742225 64.230272) (xy 141.520186 64.352261) (xy 141.266186 64.352261) (xy 141.044147 64.230272)
        (xy 140.655763 64.391135) (xy 140.240797 64.767042) (xy 140.144133 64.971284) (xy 139.887763 64.587599) (xy 139.413095 64.270436)
        (xy 138.994519 64.187176) (xy 138.711853 64.187176) (xy 138.293277 64.270436) (xy 137.818609 64.587599) (xy 137.583186 64.939934)
        (xy 137.347763 64.587599) (xy 136.873095 64.270436) (xy 136.454519 64.187176) (xy 136.171853 64.187176) (xy 135.753277 64.270436)
        (xy 135.278609 64.587599) (xy 135.043186 64.939934) (xy 134.807763 64.587599) (xy 134.333095 64.270436) (xy 133.914519 64.187176)
        (xy 133.631853 64.187176) (xy 133.213277 64.270436) (xy 132.738609 64.587599) (xy 132.503186 64.939934) (xy 132.267763 64.587599)
        (xy 131.793095 64.270436) (xy 131.374519 64.187176) (xy 131.091853 64.187176) (xy 130.673277 64.270436) (xy 130.198609 64.587599)
        (xy 129.963186 64.939934) (xy 129.727763 64.587599) (xy 129.253095 64.270436) (xy 128.834519 64.187176) (xy 128.551853 64.187176)
        (xy 128.133277 64.270436) (xy 127.658609 64.587599) (xy 127.423186 64.939934) (xy 127.187763 64.587599) (xy 126.713095 64.270436)
        (xy 126.294519 64.187176) (xy 126.011853 64.187176) (xy 125.593277 64.270436) (xy 125.118609 64.587599) (xy 124.883186 64.939934)
        (xy 124.647763 64.587599) (xy 124.173095 64.270436) (xy 123.754519 64.187176) (xy 123.471853 64.187176) (xy 123.053277 64.270436)
        (xy 122.578609 64.587599) (xy 122.343186 64.939934) (xy 122.107763 64.587599) (xy 121.633095 64.270436) (xy 121.214519 64.187176)
        (xy 120.931853 64.187176) (xy 120.513277 64.270436) (xy 120.038609 64.587599) (xy 119.803186 64.939934) (xy 119.567763 64.587599)
        (xy 119.093095 64.270436) (xy 118.674519 64.187176) (xy 118.391853 64.187176) (xy 117.973277 64.270436) (xy 117.498609 64.587599)
        (xy 117.263186 64.939934) (xy 117.027763 64.587599) (xy 116.553095 64.270436) (xy 116.134519 64.187176) (xy 115.851853 64.187176)
        (xy 115.433277 64.270436) (xy 114.958609 64.587599) (xy 114.723186 64.939934) (xy 114.487763 64.587599) (xy 114.013095 64.270436)
        (xy 113.594519 64.187176) (xy 113.311853 64.187176) (xy 112.893277 64.270436) (xy 112.418609 64.587599) (xy 112.183186 64.939934)
        (xy 111.947763 64.587599) (xy 111.473095 64.270436) (xy 111.054519 64.187176) (xy 110.771853 64.187176) (xy 110.353277 64.270436)
        (xy 109.878609 64.587599) (xy 109.643186 64.939934) (xy 109.407763 64.587599) (xy 108.933095 64.270436) (xy 108.514519 64.187176)
        (xy 108.231853 64.187176) (xy 107.813277 64.270436) (xy 107.338609 64.587599) (xy 107.021446 65.062267) (xy 106.910073 65.622176)
        (xy 107.021446 66.182085) (xy 107.338609 66.656753) (xy 107.451488 66.732176) (xy 100.430626 66.732176) (xy 100.430626 66.642176)
        (xy 100.381343 66.394411) (xy 100.240995 66.184367) (xy 100.030951 66.044019) (xy 99.783186 65.994736) (xy 98.083186 65.994736)
        (xy 97.835421 66.044019) (xy 97.625377 66.184367) (xy 97.485029 66.394411) (xy 97.435746 66.642176) (xy 97.435746 68.342176)
        (xy 97.485029 68.589941) (xy 97.625377 68.799985) (xy 97.835421 68.940333) (xy 97.880805 68.94936) (xy 97.862561 68.961551)
        (xy 97.534347 69.452758) (xy 97.419094 70.032176) (xy 97.534347 70.611594) (xy 97.862561 71.102801) (xy 98.160947 71.302176)
        (xy 97.862561 71.501551) (xy 97.534347 71.992758) (xy 97.419094 72.572176) (xy 97.534347 73.151594) (xy 97.862561 73.642801)
        (xy 98.160947 73.842176) (xy 97.862561 74.041551) (xy 97.534347 74.532758) (xy 97.419094 75.112176) (xy 97.534347 75.691594)
        (xy 97.862561 76.182801) (xy 98.181664 76.396019) (xy 98.051828 76.456993) (xy 97.661541 76.885252) (xy 97.49171 77.295286)
        (xy 97.613031 77.525176) (xy 98.806186 77.525176) (xy 98.806186 77.505176) (xy 99.060186 77.505176) (xy 99.060186 77.525176)
        (xy 100.253341 77.525176) (xy 100.374662 77.295286) (xy 100.204831 76.885252) (xy 99.814544 76.456993) (xy 99.684708 76.396019)
        (xy 99.829808 76.299066) (xy 126.24171 76.299066) (xy 126.411541 76.7091) (xy 126.801828 77.137359) (xy 127.326294 77.383662)
        (xy 127.556186 77.262995) (xy 127.556186 76.069176) (xy 127.810186 76.069176) (xy 127.810186 77.262995) (xy 128.040078 77.383662)
        (xy 128.564544 77.137359) (xy 128.954831 76.7091) (xy 129.124662 76.299066) (xy 129.003341 76.069176) (xy 127.810186 76.069176)
        (xy 127.556186 76.069176) (xy 126.363031 76.069176) (xy 126.24171 76.299066) (xy 99.829808 76.299066) (xy 100.003811 76.182801)
        (xy 100.332025 75.691594) (xy 100.447278 75.112176) (xy 100.332025 74.532758) (xy 100.003811 74.041551) (xy 99.705425 73.842176)
        (xy 100.003811 73.642801) (xy 100.332025 73.151594) (xy 100.447278 72.572176) (xy 100.332025 71.992758) (xy 100.003811 71.501551)
        (xy 99.705425 71.302176) (xy 100.003811 71.102801) (xy 100.332025 70.611594) (xy 100.447278 70.032176) (xy 100.332025 69.452758)
        (xy 100.003811 68.961551) (xy 99.985567 68.94936) (xy 100.030951 68.940333) (xy 100.240995 68.799985) (xy 100.381343 68.589941)
        (xy 100.430626 68.342176) (xy 100.430626 68.252176) (xy 125.098385 68.252176) (xy 126.390482 69.544274) (xy 126.375377 69.554367)
        (xy 126.235029 69.764411) (xy 126.185746 70.012176) (xy 126.185746 71.712176) (xy 126.235029 71.959941) (xy 126.375377 72.169985)
        (xy 126.585421 72.310333) (xy 126.630805 72.31936) (xy 126.612561 72.331551) (xy 126.284347 72.822758) (xy 126.169094 73.402176)
        (xy 126.284347 73.981594) (xy 126.612561 74.472801) (xy 126.931664 74.686019) (xy 126.801828 74.746993) (xy 126.411541 75.175252)
        (xy 126.24171 75.585286) (xy 126.363031 75.815176) (xy 127.556186 75.815176) (xy 127.556186 75.795176) (xy 127.810186 75.795176)
        (xy 127.810186 75.815176) (xy 129.003341 75.815176) (xy 129.124662 75.585286) (xy 128.954831 75.175252) (xy 128.564544 74.746993)
        (xy 128.434708 74.686019) (xy 128.753811 74.472801) (xy 129.082025 73.981594) (xy 129.197278 73.402176) (xy 129.082025 72.822758)
        (xy 128.753811 72.331551) (xy 128.735567 72.31936) (xy 128.780951 72.310333) (xy 128.990995 72.169985) (xy 129.131343 71.959941)
        (xy 129.180626 71.712176) (xy 129.180626 70.012176) (xy 129.131343 69.764411) (xy 128.990995 69.554367) (xy 128.780951 69.414019)
        (xy 128.533186 69.364736) (xy 128.331669 69.364736) (xy 128.273515 69.277703) (xy 128.231115 69.214247) (xy 128.167659 69.171847)
        (xy 127.247988 68.252176) (xy 132.423187 68.252176) (xy 132.423186 70.791589) (xy 132.214751 70.83305) (xy 131.9236 71.02759)
        (xy 131.72906 71.318741) (xy 131.660746 71.662176) (xy 131.660746 72.587176) (xy 131.72906 72.930611) (xy 131.9236 73.221762)
        (xy 132.214751 73.416302) (xy 132.558186 73.484616) (xy 133.808186 73.484616) (xy 134.151621 73.416302) (xy 134.442772 73.221762)
        (xy 134.637312 72.930611) (xy 134.646449 72.884676) (xy 134.969923 72.884676) (xy 134.97906 72.930611) (xy 135.088564 73.094496)
        (xy 134.285534 73.897527) (xy 134.151621 73.80805) (xy 133.808186 73.739736) (xy 132.558186 73.739736) (xy 132.214751 73.80805)
        (xy 131.9236 74.00259) (xy 131.72906 74.293741) (xy 131.660746 74.637176) (xy 131.660746 75.111023) (xy 131.219187 75.111023)
        (xy 131.144339 75.096135) (xy 131.069491 75.111023) (xy 131.069487 75.111023) (xy 130.895944 75.145543) (xy 130.847801 75.155119)
        (xy 130.695451 75.256917) (xy 130.59641 75.323094) (xy 130.55401 75.38655) (xy 126.477073 79.463488) (xy 126.294519 79.427176)
        (xy 126.011853 79.427176) (xy 125.593277 79.510436) (xy 125.118609 79.827599) (xy 124.883186 80.179934) (xy 124.647763 79.827599)
        (xy 124.173095 79.510436) (xy 123.754519 79.427176) (xy 123.471853 79.427176) (xy 123.053277 79.510436) (xy 122.578609 79.827599)
        (xy 122.343186 80.179934) (xy 122.107763 79.827599) (xy 121.633095 79.510436) (xy 121.214519 79.427176) (xy 120.931853 79.427176)
        (xy 120.513277 79.510436) (xy 120.038609 79.827599) (xy 119.803186 80.179934) (xy 119.567763 79.827599) (xy 119.093095 79.510436)
        (xy 118.674519 79.427176) (xy 118.391853 79.427176) (xy 117.973277 79.510436) (xy 117.498609 79.827599) (xy 117.263186 80.179934)
        (xy 117.027763 79.827599) (xy 116.553095 79.510436) (xy 116.134519 79.427176) (xy 115.851853 79.427176) (xy 115.433277 79.510436)
        (xy 114.958609 79.827599) (xy 114.723186 80.179934) (xy 114.487763 79.827599) (xy 114.013095 79.510436) (xy 113.594519 79.427176)
        (xy 113.311853 79.427176) (xy 112.893277 79.510436) (xy 112.418609 79.827599) (xy 112.183186 80.179934) (xy 111.947763 79.827599)
        (xy 111.473095 79.510436) (xy 111.054519 79.427176) (xy 110.771853 79.427176) (xy 110.353277 79.510436) (xy 109.878609 79.827599)
        (xy 109.643186 80.179934) (xy 109.407763 79.827599) (xy 108.933095 79.510436) (xy 108.514519 79.427176) (xy 108.231853 79.427176)
        (xy 107.813277 79.510436) (xy 107.338609 79.827599) (xy 107.021446 80.302267) (xy 106.910073 80.862176) (xy 107.021446 81.422085)
        (xy 107.338609 81.896753) (xy 107.813277 82.213916) (xy 108.231853 82.297176) (xy 108.514519 82.297176) (xy 108.933095 82.213916)
        (xy 109.407763 81.896753) (xy 109.643186 81.544418) (xy 109.878609 81.896753) (xy 110.353277 82.213916) (xy 110.771853 82.297176)
        (xy 111.054519 82.297176) (xy 111.473095 82.213916) (xy 111.947763 81.896753) (xy 112.183186 81.544418) (xy 112.418609 81.896753)
        (xy 112.893277 82.213916) (xy 113.311853 82.297176) (xy 113.594519 82.297176) (xy 114.013095 82.213916) (xy 114.487763 81.896753)
        (xy 114.723186 81.544418) (xy 114.958609 81.896753) (xy 115.433277 82.213916) (xy 115.851853 82.297176) (xy 116.134519 82.297176)
        (xy 116.553095 82.213916) (xy 117.027763 81.896753) (xy 117.263186 81.544418) (xy 117.498609 81.896753) (xy 117.973277 82.213916)
        (xy 118.391853 82.297176) (xy 118.674519 82.297176) (xy 119.093095 82.213916) (xy 119.567763 81.896753) (xy 119.803186 81.544418)
        (xy 120.038609 81.896753) (xy 120.513277 82.213916) (xy 120.931853 82.297176) (xy 121.214519 82.297176) (xy 121.633095 82.213916)
        (xy 122.107763 81.896753) (xy 122.343186 81.544418) (xy 122.578609 81.896753) (xy 123.053277 82.213916) (xy 123.471853 82.297176)
        (xy 123.754519 82.297176) (xy 124.173095 82.213916) (xy 124.647763 81.896753) (xy 124.883186 81.544418) (xy 125.118609 81.896753)
        (xy 125.593277 82.213916) (xy 126.011853 82.297176) (xy 126.294519 82.297176) (xy 126.713095 82.213916) (xy 127.187763 81.896753)
        (xy 127.423186 81.544418) (xy 127.658609 81.896753) (xy 128.133277 82.213916) (xy 128.551853 82.297176) (xy 128.834519 82.297176)
        (xy 129.253095 82.213916) (xy 129.727763 81.896753) (xy 129.963186 81.544418) (xy 130.198609 81.896753) (xy 130.673277 82.213916)
        (xy 131.091853 82.297176) (xy 131.374519 82.297176) (xy 131.793095 82.213916) (xy 132.267763 81.896753) (xy 132.503186 81.544418)
        (xy 132.738609 81.896753) (xy 133.213277 82.213916) (xy 133.631853 82.297176) (xy 133.914519 82.297176) (xy 134.333095 82.213916)
        (xy 134.807763 81.896753) (xy 135.043186 81.544418) (xy 135.278609 81.896753) (xy 135.753277 82.213916) (xy 136.171853 82.297176)
        (xy 136.454519 82.297176) (xy 136.873095 82.213916) (xy 137.347763 81.896753) (xy 137.583186 81.544418) (xy 137.818609 81.896753)
        (xy 138.293277 82.213916) (xy 138.711853 82.297176) (xy 138.994519 82.297176) (xy 139.413095 82.213916) (xy 139.887763 81.896753)
        (xy 140.123186 81.544418) (xy 140.358609 81.896753) (xy 140.833277 82.213916) (xy 141.251853 82.297176) (xy 141.534519 82.297176)
        (xy 141.953095 82.213916) (xy 142.427763 81.896753) (xy 142.508401 81.77607) (xy 142.535029 81.909941) (xy 142.675377 82.119985)
        (xy 142.885421 82.260333) (xy 143.133186 82.309616) (xy 144.733186 82.309616) (xy 144.980951 82.260333) (xy 145.190995 82.119985)
        (xy 145.331343 81.909941) (xy 145.380626 81.662176) (xy 145.380626 81.514708) (xy 150.710259 81.514708) (xy 150.808922 81.781563)
        (xy 151.418647 82.008084) (xy 152.068646 81.984032) (xy 152.55745 81.781563) (xy 152.656113 81.514708) (xy 151.683186 80.541781)
        (xy 150.710259 81.514708) (xy 145.380626 81.514708) (xy 145.380626 80.097637) (xy 150.037278 80.097637) (xy 150.06133 80.747636)
        (xy 150.263799 81.23644) (xy 150.530654 81.335103) (xy 151.503581 80.362176) (xy 151.862791 80.362176) (xy 152.835718 81.335103)
        (xy 153.102573 81.23644) (xy 153.329094 80.626715) (xy 153.305042 79.976716) (xy 153.102573 79.487912) (xy 152.835718 79.389249)
        (xy 151.862791 80.362176) (xy 151.503581 80.362176) (xy 150.530654 79.389249) (xy 150.263799 79.487912) (xy 150.037278 80.097637)
        (xy 145.380626 80.097637) (xy 145.380626 80.062176) (xy 145.331343 79.814411) (xy 145.190995 79.604367) (xy 144.980951 79.464019)
        (xy 144.733186 79.414736) (xy 143.133186 79.414736) (xy 142.885421 79.464019) (xy 142.675377 79.604367) (xy 142.535029 79.814411)
        (xy 142.508401 79.948282) (xy 142.427763 79.827599) (xy 141.953095 79.510436) (xy 141.534519 79.427176) (xy 141.251853 79.427176)
        (xy 140.833277 79.510436) (xy 140.358609 79.827599) (xy 140.123186 80.179934) (xy 139.887763 79.827599) (xy 139.413095 79.510436)
        (xy 138.994519 79.427176) (xy 138.711853 79.427176) (xy 138.293277 79.510436) (xy 137.818609 79.827599) (xy 137.583186 80.179934)
        (xy 137.347763 79.827599) (xy 136.873095 79.510436) (xy 136.454519 79.427176) (xy 136.171853 79.427176) (xy 135.753277 79.510436)
        (xy 135.278609 79.827599) (xy 135.043186 80.179934) (xy 134.807763 79.827599) (xy 134.333095 79.510436) (xy 133.914519 79.427176)
        (xy 133.742988 79.427176) (xy 135.047989 78.122176) (xy 136.370839 78.122176) (xy 136.445686 78.137064) (xy 136.520533 78.122176)
        (xy 136.520538 78.122176) (xy 136.742223 78.07808) (xy 136.993615 77.910105) (xy 137.036017 77.846646) (xy 138.580839 76.301825)
        (xy 138.714751 76.391302) (xy 139.058186 76.459616) (xy 140.308186 76.459616) (xy 140.651621 76.391302) (xy 140.785534 76.301825)
        (xy 143.330356 78.846648) (xy 143.372757 78.910105) (xy 143.436213 78.952505) (xy 143.624148 79.07808) (xy 143.672291 79.087656)
        (xy 143.845834 79.122176) (xy 143.845838 79.122176) (xy 143.920686 79.137064) (xy 143.995534 79.122176) (xy 150.742598 79.122176)
        (xy 150.710259 79.209644) (xy 151.683186 80.182571) (xy 152.656113 79.209644) (xy 152.623774 79.122176) (xy 154.368385 79.122176)
        (xy 155.117009 79.870801) (xy 155.048186 80.036954) (xy 155.048186 80.687398) (xy 155.2971 81.288329) (xy 155.757033 81.748262)
        (xy 156.357964 81.997176) (xy 157.008408 81.997176) (xy 157.609339 81.748262) (xy 158.069272 81.288329) (xy 158.318186 80.687398)
        (xy 158.318186 80.036954) (xy 158.069272 79.436023) (xy 157.609339 78.97609) (xy 157.008408 78.727176) (xy 156.357964 78.727176)
        (xy 156.191811 78.795999) (xy 155.273517 77.877706) (xy 155.231115 77.814247) (xy 154.979723 77.646272) (xy 154.758038 77.602176)
        (xy 154.758033 77.602176) (xy 154.683186 77.587288) (xy 154.608339 77.602176) (xy 144.235488 77.602176) (xy 141.305497 74.672186)
        (xy 143.558329 74.672186) (xy 143.633176 74.687074) (xy 143.708023 74.672186) (xy 143.708028 74.672186) (xy 143.929713 74.62809)
        (xy 144.181105 74.460115) (xy 144.223507 74.396656) (xy 145.702556 72.917607) (xy 146.348186 72.917607) (xy 146.348186 73.806745)
        (xy 146.688445 74.628202) (xy 147.31716 75.256917) (xy 148.138617 75.597176) (xy 149.027755 75.597176) (xy 149.849212 75.256917)
        (xy 150.477927 74.628202) (xy 150.818186 73.806745) (xy 150.818186 72.917607) (xy 157.548186 72.917607) (xy 157.548186 73.806745)
        (xy 157.888445 74.628202) (xy 158.51716 75.256917) (xy 159.338617 75.597176) (xy 160.227755 75.597176) (xy 161.049212 75.256917)
        (xy 161.677927 74.628202) (xy 162.018186 73.806745) (xy 162.018186 72.917607) (xy 161.677927 72.09615) (xy 161.049212 71.467435)
        (xy 160.227755 71.127176) (xy 159.338617 71.127176) (xy 158.51716 71.467435) (xy 157.888445 72.09615) (xy 157.548186 72.917607)
        (xy 150.818186 72.917607) (xy 150.477927 72.09615) (xy 149.849212 71.467435) (xy 149.027755 71.127176) (xy 148.138617 71.127176)
        (xy 147.31716 71.467435) (xy 146.688445 72.09615) (xy 146.348186 72.917607) (xy 145.702556 72.917607) (xy 151.191811 67.428353)
        (xy 151.357964 67.497176) (xy 152.008408 67.497176) (xy 152.609339 67.248262) (xy 153.0247 66.832901) (xy 153.030654 66.835103)
        (xy 154.003581 65.862176) (xy 153.989439 65.848034) (xy 154.169044 65.668429) (xy 154.183186 65.682571) (xy 154.197329 65.668429)
        (xy 154.376934 65.848034) (xy 154.362791 65.862176) (xy 154.376934 65.876319) (xy 154.197329 66.055924) (xy 154.183186 66.041781)
        (xy 153.210259 67.014708) (xy 153.308922 67.281563) (xy 153.918647 67.508084) (xy 154.568646 67.484032) (xy 155.05745 67.281563)
        (xy 155.108124 67.144505) (xy 155.225377 67.319985) (xy 155.435421 67.460333) (xy 155.683186 67.509616) (xy 157.683186 67.509616)
        (xy 157.930951 67.460333) (xy 158.140995 67.319985) (xy 158.281343 67.109941) (xy 158.330626 66.862176) (xy 158.330626 64.862176)
        (xy 158.281343 64.614411) (xy 158.140995 64.404367) (xy 157.930951 64.264019) (xy 157.683186 64.214736) (xy 157.331669 64.214736)
        (xy 157.273515 64.127703) (xy 157.231115 64.064247) (xy 157.167659 64.021847) (xy 156.992988 63.847176) (xy 162.448186 63.847176)
        (xy 162.448187 82.627176) (xy 97.168186 82.627176) (xy 97.168186 78.009066) (xy 97.49171 78.009066) (xy 97.661541 78.4191)
        (xy 98.051828 78.847359) (xy 98.576294 79.093662) (xy 98.806186 78.972995) (xy 98.806186 77.779176) (xy 99.060186 77.779176)
        (xy 99.060186 78.972995) (xy 99.290078 79.093662) (xy 99.814544 78.847359) (xy 100.204831 78.4191) (xy 100.374662 78.009066)
        (xy 100.253341 77.779176) (xy 99.060186 77.779176) (xy 98.806186 77.779176) (xy 97.613031 77.779176) (xy 97.49171 78.009066)
        (xy 97.168186 78.009066) (xy 97.168186 63.847176) (xy 150.373383 63.847176)
      )
    )
  )
)
